17;0
26;0
16;0
17;0
26;0
17;0
21;0
28;0
16;0
16;0
21;0
15;0
16;0
20;0
25;0
36;0
34;0
28;0
21;0
21;0
17;0
28;0
27;0
21;0
35;0
26;0
17;0
15;0
19;0
21;0
24;0
34;0
23;0
29;0
21;0
21;0
16;0
31;0
17;0
24;0
16;0
23;0
21;0
21;0
20;0
25;0
21;0
24;0
20;0
20;0
26;0
17;0
21;0
20;0
20;0
16;0
19;0
19;0
16;0
19;0
35;0
32;0
35;0
23;0
23;0
30;0
34;0
21;0
26;0
19;0
17;0
20;0
15;0
26;0
19;0
25;0
16;0
28;0
19;0
21;0
26;0
21;0
21;0
16;0
17;0
28;0
26;0
31;0
24;0
38;0
15;0
20;0
34;0
20;0
31;0
29;0
17;0
16;0
20;0
17;0
15;0
23;0
17;0
28;0
21;0
21;0
31;0
23;0
31;0
16;0
19;0
25;0
34;0
19;0
21;0
21;0
20;0
28;0
24;0
17;0
34;0
26;0
19;0
27;0
23;0
35;0
21;0
26;0
19;0
16;0
26;0
15;0
15;0
21;0
17;0
35;0
21;0
29;0
23;0
17;0
21;0
19;0
25;0
21;0
20;0
19;0
20;0
17;0
26;0
17;0
16;0
23;0
23;0
16;0
21;0
23;0
17;0
20;0
21;0
19;0
34;0
21;0
15;0
35;0
16;0
32;0
35;0
19;0
20;0
36;0
26;0
21;0
20;0
21;0
19;0
26;0
29;0
27;0
26;0
25;0
16;0
17;0
17;0
24;0
16;0
23;0
21;0
31;0
34;0
29;0
21;0
20;0
20;0
35;0
16;0
20;0
28;0
21;0
24;0
28;0
29;0
20;0
30;0
19;0
21;0
25;0
21;0
27;0
31;0
26;0
17;0
28;0
21;0
16;0
29;0
34;0
17;0
16;0
31;0
17;0
19;0
26;0
21;0
15;0
17;0
23;0
19;0
21;0
36;0
21;0
26;0
28;0
21;0
31;0
15;0
19;0
23;0
21;0
34;0
24;0
16;0
17;0
19;0
17;0
35;0
26;0
19;0
16;0
17;0
16;0
21;0
35;0
24;0
27;0
29;0
17;0
21;0
19;0
16;0
17;0
20;0
21;0
20;0
16;0
19;0
16;0
17;0
32;0
17;0
21;0
31;0
28;0
24;0
30;0
17;0
23;0
31;0
21;0
21;0
19;0
16;0
38;0
19;0
17;0
23;0
20;0
28;0
26;0
21;0
28;0
23;0
21;0
16;0
20;0
16;0
26;0
23;0
26;0
20;0
15;0
24;0
21;0
27;0
20;0
26;0
23;0
28;0
24;0
26;0
16;0
28;0
17;0
16;0
21;0
26;0
21;0
21;0
23;0
29;0
17;0
21;0
34;0
26;0
34;0
15;0
15;0
32;0
19;0
15;0
19;0
26;0
25;0
20;0
23;0
21;0
19;0
24;0
17;0
20;0
19;0
21;0
29;0
16;0
17;0
28;0
17;0
19;0
28;0
24;0
19;0
30;0
21;0
16;0
21;0
21;0
26;0
19;0
17;0
23;0
21;0
20;0
17;0
28;0
23;0
15;0
19;0
24;0
16;0
17;0
35;0
16;0
19;0
26;0
25;0
17;0
26;0
23;0
19;0
21;0
21;0
23;0
31;0
20;0
35;0
17;0
23;0
29;0
15;0
21;0
28;0
24;0
19;0
17;0
16;0
19;0
28;0
23;0
26;0
17;0
28;0
21;0
21;0
21;0
20;0
35;0
21;0
26;0
36;0
16;0
16;0
16;0
25;0
21;0
31;0
24;0
19;0
21;0
21;0
26;0
29;0
19;0
30;0
29;0
26;0
16;0
20;0
28;0
23;0
19;0
23;0
20;0
34;0
35;0
25;0
17;0
25;0
21;0
17;0
32;0
21;0
26;0
24;0
35;0
28;0
26;0
15;0
16;0
23;0
20;0
17;0
21;0
23;0
19;0
19;0
24;0
36;0
21;0
26;0
17;0
35;0
15;0
34;0
15;0
26;0
21;0
24;0
16;0
19;0
16;0
17;0
20;0
16;0
19;0
35;0
30;0
28;0
16;0
16;0
31;0
20;0
17;0
29;0
15;0
26;0
24;0
21;0
26;0
23;0
21;0
27;0
17;0
24;0
21;0
17;0
19;0
16;0
21;0
16;0
21;0
34;0
20;0
19;0
17;0
35;0
30;0
19;0
16;0
24;0
19;0
20;0
23;0
25;0
17;0
20;0
27;0
25;0
28;0
31;0
16;0
24;0
21;0
20;0
31;0
21;0
20;0
26;0
25;0
29;0
17;0
15;0
16;0
26;0
20;0
35;0
16;0
16;0
17;0
21;0
35;0
21;0
28;0
30;0
36;0
29;0
20;0
21;0
17;0
23;0
19;0
26;0
24;0
26;0
21;0
26;0
20;0
19;0
20;0
15;0
26;0
28;0
36;0
21;0
17;0
31;0
16;0
35;0
31;0
19;0
31;0
16;0
17;0
19;0
23;0
21;0
17;0
30;0
23;0
24;0
16;0
21;0
23;0
24;0
19;0
34;0
21;0
25;0
17;0
26;0
25;0
17;0
28;0
26;0
20;0
17;0
16;0
17;0
15;0
21;0
21;0
20;0
17;0
16;0
15;0
30;0
38;0
23;0
21;0
21;0
17;0
19;0
23;0
21;0
29;0
24;0
32;0
19;0
28;0
24;0
34;0
26;0
17;0
30;0
25;0
26;0
20;0
35;0
21;0
17;0
21;0
23;0
15;0
26;0
16;0
20;0
21;0
21;0
34;0
24;0
21;0
17;0
27;0
26;0
24;0
21;0
31;0
20;0
19;0
19;0
35;0
28;0
16;0
17;0
16;0
17;0
21;0
17;0
16;0
16;0
21;0
17;0
21;0
29;0
25;0
21;0
21;0
31;0
23;0
35;0
17;0
28;0
16;0
20;0
31;0
17;0
21;0
17;0
38;0
17;0
16;0
24;0
20;0
19;0
15;0
15;0
21;0
28;0
19;0
20;0
34;0
19;0
21;0
19;0
23;0
35;0
16;0
21;0
23;0
26;0
17;0
23;0
21;0
19;0
24;0
23;0
21;0
36;0
26;0
24;0
21;0
26;0
26;0
16;0
20;0
26;0
21;0
17;0
17;0
26;0
16;0
28;0
31;0
19;0
16;0
17;0
16;0
29;0
16;0
24;0
21;0
30;0
21;0
29;0
20;0
17;0
21;0
35;0
25;0
16;0
30;0
21;0
15;0
25;0
25;0
19;0
19;0
26;0
24;0
34;0
28;0
23;0
20;0
27;0
20;0
32;0
34;0
21;0
