lat,lon,ids
48.201097665724134,16.367568409842956,8001
48.1906345590557,16.327026526314786,8003
48.19161566983301,16.33353429046881,8005
48.239239586572786,16.381913003027215,8006
48.233604006279435,16.366425550637214,8007
48.18441781311606,16.44440584851245,8008
48.26508348354097,16.340612511572324,8009
48.24641766321216,16.40601582925575,8010
48.202885321516675,16.25873190786399,8012
48.23895923155282,16.354168402773137,8013
48.22258170627227,16.333682605135298,8014
48.23880308102485,16.29758887106171,8015
48.19392933149228,16.339527252213244,8017
48.25622422060113,16.433165499982454,8018
48.1953875102875,16.316725310534462,8019
48.17786413844234,16.325026078520274,8021
48.1920931490821,16.300069898755442,8024
48.222522915474315,16.312916971111473,8026
48.25662028670334,16.31254562344609,8027
48.2033805847168,16.415803909301758,8028
48.1646924544998,16.422022203048307,8031
48.19139862060547,16.25848960876465,8033
48.24273907930256,16.353310173330787,8034
48.172878361546246,16.393149439118066,8035
48.156205760115306,16.39110122262203,8038
48.16405169689723,16.256155332647193,8040
48.23373813045653,16.35506987722606,8043
48.186751386037436,16.381688150721413,8044
48.198178915201396,16.401338574265953,8045
48.17114631771578,16.308841223291125,8046
48.25049354631068,16.371603995831943,8047
48.275024588423435,16.40765232728724,8050
48.241765393125206,16.332906065745696,8052
48.26369857788086,16.41537857055664,8055
48.20354583732641,16.272878869429803,8057
48.16968104541005,16.421075124937413,8059
48.224483489990234,16.396289825439453,8063
48.16692367077261,16.429267129410096,8064
48.193653951184345,16.40383847245054,8065
48.1545846574969,16.294611874627392,8066
48.22527881877745,16.284131356922202,8068
48.16258460920771,16.279016863378676,8070
48.192414810913704,16.297337848851576,8071
48.25660244089073,16.34295469773049,8072
48.23744517174674,16.345228074058365,8073
48.24336332350379,16.27152532863225,8074
48.248925709818316,16.35332972212443,8075
48.187834168443814,16.269091527936062,8076
48.15312404870429,16.400106332084505,8078
48.167709939123135,16.319511746551463,8079
48.19903652328649,16.31372143996428,8080
48.16560660740089,16.413738084181013,8081
48.23912438044463,16.445837572617464,8082
48.19818973848872,16.44346396509187,8083
48.19683214343671,16.367342698496824,8084
48.26486414148949,16.385806593521288,8087
48.175492804985126,16.366134302860115,8088
48.16574127272466,16.293087521105594,8089
48.19476901197232,16.44158245778955,8090
48.15773957897922,16.283211841436465,8092
48.25733358817985,16.368535208295683,8097
48.15731920240851,16.269631226876804,8098
48.26171761810548,16.29202068470368,8099
48.18154308270682,16.405852027847455,8100
48.19624663377705,16.32339240384023,8101
48.1728816727257,16.291433111903853,8105
48.18363486773822,16.41785703929906,8109
48.15294177342474,16.423240977352545,8111
48.18540859530028,16.296417006515338,8112
48.198604583740234,16.267404556274414,8113
48.161223392595026,16.420412454777008,8118
48.20023727416992,16.438703536987305,8122
48.18218085893954,16.3435673647364,8123
48.2573037127947,16.33895946342883,8126
48.1871452331543,16.25899314880371,8127
48.25770716168512,16.35254516077407,8128
48.26861526210938,16.425278631054688,8129
48.20766347102231,16.3098365882996,8131
48.17913452000832,16.28016106911077,8132
48.203289869922024,16.356998359348022,8135
48.18047469696406,16.41596542895665,8136
48.255304064659406,16.38619074237075,8137
48.20504239863198,16.402018674077308,8139
48.20032143809409,16.287066949982396,8140
48.273474537850376,16.44237255201505,8141
48.2441200899787,16.321678114681895,8142
48.21084829391687,16.397521126240314,8144
48.16031841453921,16.319483989211747,8146
48.17245440986133,16.286892220999352,8148
48.169862599517614,16.345328762271397,8149
48.21829087925571,16.343283455425855,8150
48.269138233972775,16.378979366522277,8152
48.25742671562838,16.429167307535398,8153
48.19208729252332,16.33768171322798,8154
48.20241174291934,16.288486196900564,8155
48.19258593357497,16.31199753140024,8156
48.22115092522022,16.26565328430641,8157
48.17709154658156,16.265917508934862,8158
48.1636827045997,16.361624582022067,8160
48.196539422948476,16.31358109804919,8162
48.17493839479668,16.401432733183768,8163
48.23727243041048,16.385125650193476,8164
48.167258388853014,16.348459240849717,8166
48.2098099789518,16.355293702899598,8167
48.17693872902535,16.408685934800324,8168
48.20304819515357,16.365619622835364,8169
48.26644275976647,16.295335820305528,8172
48.22490602617521,16.345088367928522,8174
48.18973240951365,16.293847049110788,8176
48.27195739746094,16.3865909576416,8177
48.176563117759784,16.29794776935047,8179
48.27198411013485,16.404224897646817,8181
48.242794036865234,16.35820198059082,8182
48.177714658827156,16.293011160238287,8184
48.22635576738109,16.443113681826187,8186
48.189481433674196,16.41675818757109,8187
48.17158805437304,16.341342321775336,8188
48.16145974798471,16.409451238333155,8190
48.19905090332031,16.27885627746582,8192
48.161441896165066,16.295552160374914,8193
48.16315049777778,16.416565818058633,8194
48.2342070042619,16.317518822050868,8195
48.16415023803711,16.285036087036133,8197
48.231947124383645,16.397109770319705,8198
48.2015109395896,16.306832695786824,8204
48.24721926961247,16.338527418886454,8205
48.24238932593209,16.435689187596566,8206
48.175881007807426,16.35322969094391,8207
48.240544114504395,16.341815915844283,8210
48.249644308232526,16.282604027287604,8211
48.21401563024536,16.40571217452704,8212
48.208536459145705,16.26535438450375,8217
48.21280622323759,16.37930339779363,8218
48.26245438980696,16.42774070710688,8219
48.25910347102196,16.322384617253054,8220
48.2258465349592,16.384413546057765,8221
48.1892974585525,16.343100988874724,8222
48.178287611933804,16.341348545566298,8223
48.196700117403275,16.257481613300207,8224
48.2105109233629,16.34711267984796,8227
48.2413826928035,16.365538390448823,8228
48.25333814859457,16.44797512125203,8229
48.222615645109045,16.297081922539103,8231
48.1608210476577,16.38822341234691,8233
48.24288558959961,16.256710052490234,8235
48.250520317260296,16.29452473224239,8237
48.27612302525923,16.39279473156041,8239
48.206994248737864,16.38328453339693,8242
48.20696256784298,16.317350909450933,8243
48.204752396061096,16.29529199376013,8247
48.21106719970703,16.304513931274414,8249
48.228177205263464,16.306981714948577,8250
48.1804056638728,16.32337089609269,8253
48.20539242697055,16.378663419782576,8254
48.202837209906384,16.35068373534557,8256
48.18770162984766,16.281940805324634,8260
48.18343559669285,16.27620937188565,8264
48.174154561654554,16.37387191455089,8265
48.2057457427019,16.309833774762225,8266
48.18999240653231,16.29724227669679,8271
48.19101411585871,16.38917527398146,8273
48.206764191408176,16.324452647910757,8275
48.21967077534201,16.313778720137144,8276
48.21875141761659,16.408772344494125,8281
48.27710260387797,16.335812443307095,8282
48.2026942902957,16.398757360116345,8283
48.2399123289059,16.323979265963764,8284
48.16008438149158,16.400601603078215,8286
48.24046514001426,16.401538713869506,8288
48.26662266089923,16.43239064048038,8289
48.19724750733418,16.36149747803206,8294
48.166409635392505,16.264159168599143,8297
48.23565329312531,16.340143852934947,8298
48.206867037937826,16.389046232348463,8299
48.250663280599255,16.42900293765077,8301
48.177503892727614,16.34385681718033,8302
48.19648395946244,16.398977417880875,8306
48.195560455322266,16.38364028930664,8307
48.25770009060097,16.41747278202823,8309
48.19247820719759,16.342711038002967,8310
48.228809112553364,16.380468226923234,8311
48.2400569326007,16.275748356461094,8313
48.19529278366559,16.371904329118816,8314
48.160887278806506,16.272124127710292,8316
48.1911799713256,16.36102382778164,8318
48.181270599365234,16.3792667388916,8319
48.252966106558354,16.301115877075528,8320
48.19119708782764,16.375176417923267,8321
48.17666888576236,16.269560678448062,8322
48.1735863246478,16.443778907923843,8326
48.15204067666793,16.38512420925184,8327
48.181780722010494,16.318990166160347,8328
48.19981172115721,16.258645509827705,8330
48.27278518676758,16.447216033935547,8332
48.20121204312337,16.39559552998201,8333
48.17815062467651,16.331665465782084,8334
48.1732032773083,16.36948432024198,8335
48.24967120593435,16.36595575237632,8336
48.191421108734254,16.282643284087115,8338
48.23792731381252,16.37074101244654,8343
48.247359343365844,16.401843611723425,8347
48.19857822578986,16.404225700209732,8350
48.23606583053146,16.33635889801292,8351
48.24384307861328,16.33930778503418,8352
48.167053955709676,16.29675355511479,8354
48.246559143066406,16.4166316986084,8355
48.21007088996184,16.32501610804025,8358
48.22991040407009,16.41442009143794,8359
48.177549941700285,16.27884674533175,8360
48.16033197056694,16.381080699383528,8361
48.161408573664794,16.393008505316462,8363
48.15899666382081,16.363594206807246,8367
48.16958440694012,16.314354022972264,8371
48.21916525326584,16.32124631079529,8373
48.27019617503705,16.383526239643253,8374
48.22911912171386,16.354969569279206,8375
48.18327787010244,16.409757184557446,8376
48.21143105778668,16.366625604843627,8377
48.17171308151625,16.302682423008996,8379
48.244360371350844,16.427984373611633,8381
48.2602398435548,16.447277449902977,8382
48.24140387867678,16.446974026759154,8384
48.163426581018776,16.374095308511244,8385
48.15184624336282,16.371670106023185,8387
48.26163878571185,16.409769623246746,8388
48.231192052381466,16.327809937176347,8390
48.24062841777867,16.28371466741919,8393
48.243571019482424,16.328894961035157,8394
48.25435639620604,16.442573631193575,8396
48.16077676041065,16.440568381902185,8398
48.19554095294831,16.259954106899393,8399
48.21165993851649,16.331638207907634,8400
48.188207268611144,16.308515307770303,8401
48.27324517452228,16.325023584072547,8402
48.21342086791992,16.264055252075195,8406
48.15741338898289,16.401212974881624,8412
48.19976330638927,16.354051738493613,8416
48.17488140169462,16.383432343238102,8417
48.21148323272475,16.44586676429359,8419
48.19373321533203,16.334545135498047,8421
48.25503878987109,16.404020906512322,8426
48.268714224965336,16.39885020910365,8427
48.15154208878416,16.29641205677663,8428
48.22380051140359,16.331276808085306,8429
48.15962001655567,16.269619778509156,8431
48.15414899665261,16.348737843043633,8433
48.16537127245738,16.332643895872657,8437
48.19782083042699,16.39016640475068,8441
48.20508406582412,16.434193102099904,8442
48.18367288868289,16.349581362135797,8443
48.2132097634034,16.35324169749334,8444
48.212385019093524,16.40873551291001,8449
48.19431380632196,16.411382098634594,8453
48.216666643698005,16.3664139684253,8456
48.22907257080078,16.436538696289062,8458
48.177237837326594,16.3846045109017,8460
48.263328557692056,16.33643821959319,8461
48.24668884277344,16.334165573120117,8464
48.19112893038349,16.277069944561838,8467
48.17186335833528,16.42081086138245,8468
48.18863428789862,16.320869596308036,8469
48.21566275427719,16.32817914241755,8471
48.179897236659656,16.259462014328978,8474
48.203607580727436,16.302680629988664,8475
48.20923753202089,16.395340715714163,8476
48.1509645828254,16.3382591860481,8477
48.20794452000408,16.350936280831977,8481
48.21752055965001,16.326862660297998,8483
48.16906893127387,16.323818138588212,8484
48.24829256780069,16.305578543497823,8486
48.20871370550402,16.399088340765097,8487
48.180494794061914,16.41051958796411,8489
48.23422667394125,16.32067396077426,8491
48.154005102169734,16.38295201414319,8492
48.232430253027815,16.262072095841923,8493
48.26716219187849,16.389000500036374,8495
48.23837821116865,16.435070743000054,8496
48.155217738303776,16.266384706277968,8497
48.23550645956018,16.419231581878076,8500
48.23447041373995,16.36234223651959,8501
48.233777122989245,16.424670258692206,8506
48.1723359611863,16.35561922470471,8508
48.26884838919625,16.342820817214072,8509
48.21741547455509,16.356423722432325,8513
48.23735855773593,16.299882391044058,8514
48.2198486328125,16.430803298950195,8515
48.24528503417969,16.28165054321289,8520
48.22260789677185,16.40571766473439,8522
48.23698373301543,16.324011177480962,8523
48.22323497913832,16.324377737060114,8526
48.19912432337582,16.40777143358154,8527
48.15907944490136,16.42957482684682,8531
48.20552269423432,16.273800985653825,8532
48.23939122701332,16.272038599057687,8533
48.213403325169004,16.317488996570667,8535
48.18681717252332,16.401301319718975,8539
48.23775715937672,16.432254061967704,8542
48.24221926099293,16.314873820069568,8543
48.24658019950147,16.379769087040696,8548
48.20572071718798,16.370282030274538,8549
48.27377912697699,16.403456802555045,8552
48.244259928365345,16.446028329726808,8553
48.19292049348178,16.415979107943603,8555
48.243020764347214,16.34739232406476,8558
48.23948108707049,16.39755306805937,8560
48.21392883464982,16.413650394681408,8561
48.26110076904297,16.35854148864746,8562
48.269803749875116,16.36146559042183,8565
48.2506593642648,16.41684397222674,8568
48.241657455818384,16.417437739703825,8569
48.191230494629686,16.42036169059862,8573
48.16417694091797,16.395315170288086,8578
48.20979208687126,16.28855755854877,8580
48.195399835403556,16.299911054550645,8581
48.24802619252039,16.445923020943727,8587
48.2756244276006,16.388873431756334,8589
48.24076585838998,16.370884512758302,8590
48.2330275851325,16.308655930855416,8591
48.19501694533166,16.30905036641166,8592
48.20034171825668,16.38744953380215,8593
48.16496045933037,16.269237738937704,8595
48.16363320541441,16.325872801864868,8596
48.21092263709687,16.441216361274847,8598
48.175947196736566,16.337097147267155,8600
48.23795780366807,16.338701649335462,8601
48.243957041040176,16.34332042548063,8603
48.26023980872701,16.403473348178803,8604
48.17088854558396,16.447939943993692,8606
48.18273550846417,16.327492161703546,8608
48.243604951220625,16.411628666665774,8612
48.19424543553802,16.296980853672576,8613
48.204315185546875,16.344296,8615
48.16697705234992,16.25957436227739,8621
48.18320406390289,16.337127915177184,8623
48.1897430001957,16.31103286019401,8626
48.18377242370346,16.361516181249748,8628
48.21705063077223,16.278031838096762,8629
48.16585202184374,16.27970356011476,8630
48.24848526673813,16.387396304635022,8635
48.23223083157763,16.360580682880258,8636
48.190063046570216,16.355968207345622,8637
48.27370925303666,16.438114512305443,8638
48.190089322616736,16.3785928177522,8639
48.2086010352729,16.302615418432577,8642
48.25908565540562,16.41075953150404,8644
48.211387979586746,16.382143510740036,8648
48.26306227603987,16.43913370734812,8649
48.160428538188874,16.361228081039467,8650
48.24107548549735,16.33645188845836,8653
48.27148747140109,16.420531836774384,8655
48.250744760316806,16.44609543470891,8656
48.18882550157063,16.32387150610994,8658
48.20017825438816,16.335192449814333,8660
48.16566453841375,16.369277585872453,8663
48.16823640685225,16.328058141966835,8665
48.2293364815209,16.32632259501158,8671
48.166948199142304,16.310351077585764,8674
48.251266226678815,16.43647340468659,8678
48.18567844192694,16.35659184292228,8684
48.163051866206494,16.441741840308236,8686
48.18837625592424,16.385403640780147,8687
48.16431427001953,16.312467575073242,8690
48.24886824940309,16.439636432863967,8691
48.19788581621903,16.28865315582798,8692
48.24753563475173,16.254508339356825,8693
48.2214831520886,16.42554668291285,8694
48.17792675553668,16.421042978316166,8695
48.18341775985014,16.376669166414615,8698
48.16174103677303,16.33234699751216,8699
48.169487900810246,16.43532587521832,8700
48.15345170800705,16.426025445638725,8701
48.18047520124557,16.294977774485993,8704
48.21934509277344,16.255104064941406,8706
48.24052515282222,16.379687642927617,8711
48.2296863084815,16.289173509557518,8712
48.15925431189038,16.3094909172323,8713
48.253251498984795,16.280644960271925,8714
48.194165553076715,16.36413343540489,8715
48.2280317143471,16.282145130293106,8716
48.253712455649946,16.421296580952355,8717
48.175325564735374,16.42048927002796,8719
48.163479263461376,16.448257261008592,8725
48.17346372500422,16.35922996822262,8727
48.207100164610665,16.30721004703162,8728
48.273277287345444,16.3541874759367,8730
48.26410417413232,16.345867203826167,8732
48.166843173543505,16.28992384535399,8737
48.251662450574855,16.423370093703472,8738
48.21256177563553,16.309917579692726,8741
48.254695154887635,16.372698641996653,8743
48.193833807379896,16.266660490563158,8745
48.274192810058594,16.35758399963379,8749
48.26124163065045,16.36288105997192,8753
48.16794950512757,16.35456094196327,8755
48.16101142505712,16.277607277267705,8756
48.246934257142954,16.434199334450884,8758
48.15206824812841,16.35941180326757,8760
48.198401649918615,16.304198706645128,8762
48.2308235168457,16.363506317138672,8764
48.20623982346346,16.28100227681515,8767
48.24258950999094,16.44424773168425,8768
48.195146060909366,16.2752026703754,8771
48.2438575048964,16.365985249270306,8773
48.262328803631824,16.348421185846828,8774
48.23562065947076,16.3900805256934,8777
48.17877814740381,16.377845246411226,8779
48.18423658028373,16.44160738558831,8780
48.270943598951035,16.44335745378086,8782
48.20853896374371,16.378643676202103,8786
48.27083363551063,16.27417370161712,8796
48.230855845038484,16.386409771551673,8798
48.2784995913941,16.377318035682254,8801
48.19449979913848,16.447232325117373,8804
48.1635975468324,16.3178373466172,8814
48.26880372580506,16.39457214638979,8817
48.24408684088986,16.40396606673193,8818
48.19029719231223,16.401832905358926,8820
48.21572398925159,16.319342664534364,8821
48.25112964002535,16.35678476298002,8823
48.264835078871826,16.27501100371374,8829
48.27270175132264,16.41713643283287,8830
48.21734619140625,16.292898178100586,8834
48.254585080895055,16.408138449044745,8842
48.2194947404273,16.390286121994095,8845
48.26555666673678,16.436240526024374,8846
48.23057112477769,16.35719794493323,8850
48.225800214637424,16.293109157731216,8854
48.2550163269043,16.425077438354492,8855
48.22446766420294,16.339609008008054,8858
48.201988356121575,16.267002093191778,8859
48.16330226656561,16.37696817049987,8861
48.22581370019271,16.314657978724227,8869
48.18712986173799,16.373560595731636,8871
48.22268645544162,16.302012633026184,8874
48.21112100141717,16.342219873659563,8876
48.15535399182488,16.34501287567175,8878
48.16840264010067,16.3680763953869,8879
48.185841082634816,16.396320931543165,8881
48.16818641033208,16.33514218530873,8882
48.20970202969895,16.389246713783994,8887
48.220213726767135,16.30730020635621,8888
48.239427901082614,16.30963206458532,8891
48.21497305076433,16.43524290318538,8900
48.27059510187794,16.391120185046447,8905
48.23420953894242,16.28560553017495,8909
48.27567292857747,16.373072060138107,8913
48.21847515827653,16.403593241341007,8917
48.171268266523214,16.31297925903324,8918
48.21342678726717,16.38679415601514,8920
48.17056684883406,16.31826411097193,8921
48.17885938254473,16.41768667302342,8923
48.189046090093285,16.37254572474658,8926
48.226890899047966,16.29842953433352,8928
48.23395575260897,16.433551250056972,8929
48.271844056411936,16.43596687872091,8930
48.230359734992525,16.349388692533605,8931
48.19376397327063,16.256295945703325,8935
48.19830791759682,16.384225794742022,8937
48.20119721334475,16.284452140064946,8938
48.179901693681686,16.42540172383466,8940
48.16518749761318,16.380463419336408,8942
48.1533273957953,16.406338721973306,8945
48.26651895464406,16.25843321906828,8951
48.2116813659668,16.402584075927734,8956
48.24724433506701,16.30077052958545,8963
48.252499356681284,16.327883841143045,8967
48.16675322390207,16.273136010156865,8968
48.17961502075195,16.436767578125,8969
48.26984779288584,16.409359035677497,8972
48.15262318537848,16.36648142981504,8973
48.17748260498047,16.28620147705078,8975
48.258440899525134,16.383204154320172,8981
48.2524927195229,16.310557855824708,8982
48.18217256311264,16.321797311757344,8985
48.25026873494457,16.3627988285076,8988
48.203199208920296,16.39348738706092,8991
48.25947914964425,16.42581675553833,8992
48.19755996232792,16.37169841274421,8993
48.25428595863827,16.344840300240236,8994
48.219722747802734,16.381210327148438,8999
48.25018751579784,16.299799567719855,9001
48.16407452332716,16.445185907332963,9002
48.24006314395352,16.438018796563828,9003
48.16313860993883,16.26701483342035,9005
48.23622015435444,16.35900175479408,9008
48.172203633093964,16.37629465645369,9010
48.195623039591084,16.408646308864206,9012
48.16993424398194,16.39273858744146,9013
48.2362113098375,16.28494358335425,9015
48.25104129958089,16.376089282315036,9016
48.15341809924472,16.395589267531342,9019
48.25819862442732,16.290859754164153,9020
48.218559710498596,16.39913796834857,9023
48.19967541766753,16.263331309541186,9024
48.16988718666287,16.294150927288012,9032
48.21505178724545,16.35019310877706,9035
48.18898556584703,16.33365316361617,9037
48.20150226815884,16.37748131918822,9041
48.15306033530895,16.33640114014698,9047
48.153943808604325,16.379726830087037,9048
48.18493684948311,16.328718734125488,9050
48.210601606229396,16.307601324035293,9053
48.16917466207227,16.299177103962663,9054
48.251991271972656,16.398347854614258,9055
48.17168718889982,16.426281019200523,9056
48.25177764892578,16.405014038085938,9057
48.21759385078601,16.261029693116473,9058
48.24026733550815,16.36246833420326,9059
48.27538299560547,16.332134246826172,9062
48.186029619195196,16.411728026487822,9063
48.23060420581213,16.31317241021832,9064
48.23612876821449,16.406567996342954,9066
48.16746121122094,16.342299999942384,9067
48.1686768273412,16.416969946493307,9068
48.20800387409708,16.386572348815484,9069
48.172263539963666,16.364987254608362,9072
48.250694274902344,16.273639678955078,9074
48.2453667254243,16.36275081470897,9078
48.245208740234375,16.41993522644043,9079
48.21781884310021,16.37644548844433,9080
48.17690649182459,16.35651700856472,9086
48.20717575424813,16.447448793051056,9089
48.186790466308594,16.361568450927734,9093
48.24496578423896,16.37692635142138,9097
48.23339071714024,16.38945795754284,9099
48.24062502388485,16.328112972680557,9102
48.25794423807104,16.447163587759505,9104
48.26879984174541,16.441226062004258,9105
48.24796472330575,16.41342163148869,9108
48.26003509884719,16.341166447516944,9109
48.22825004659324,16.300850140832065,9112
48.16238894248973,16.3095759911889,9115
48.25814516844975,16.36183950847675,9117
48.17521521215308,16.40784452128356,9119
48.21532244491459,16.3899462839806,9121
48.16760395994266,16.404205336397805,9123
48.172985304371046,16.40346854711178,9126
48.21853795893053,16.29683331978956,9128
48.172340067168534,16.332200306612922,9132
48.22089789260128,16.336733245302707,9134
48.17601013183594,16.26333999633789,9136
48.19698109071337,16.291094795238156,9137
48.22432797530158,16.364757021248543,9141
48.19300580876532,16.361698097608226,9142
48.165859534650814,16.4079802143407,9147
48.17997035707978,16.35650864416196,9148
48.18154694510941,16.257925136316334,9149
48.26364857510752,16.39276575244875,9152
48.158374803913496,16.36864338834668,9160
48.26733171841055,16.349175568327983,9164
48.18928067665193,16.314666798085618,9166
48.23806295642821,16.317767269716317,9170
48.18648221088215,16.364477989216233,9171
48.204943135463516,16.256984646602596,9172
48.21227070520101,16.362107091545543,9173
48.20280663714392,16.341170470032456,9180
48.257380762927234,16.358170394338437,9184
48.23887078332477,16.33271821818038,9187
48.20925124197291,16.444448131985222,9189
48.177082217599306,16.435192683111545,9190
48.16219239791572,16.29263930271095,9212
48.18099624485482,16.336242037360197,9218
48.21347213655446,16.343891576062894,9219
48.231877186238016,16.415777625652165,9221
48.15942145267793,16.44901482973503,9222
48.162854428895244,16.32894743474447,9223
48.20759963989258,16.290998458862305,9224
48.255254011176454,16.369728355446316,9232
48.26169647915165,16.38120739053938,9234
48.17593127509608,16.283986140538087,9236
48.227177704338025,16.310477888243124,9240
48.158314310042016,16.290578575340486,9241
48.217242696326515,16.438731269523576,9242
48.22709982353876,16.332023959452133,9243
48.15198160662808,16.331483356077015,9248
48.22186590709477,16.40260374129223,9249
48.17310333251953,16.345298767089844,9251
48.24862933988213,16.37000817984046,9252
48.19590871576101,16.27113963574108,9253
48.245381503134695,16.351534388968012,9254
48.26245880126953,16.40566635131836,9255
48.18295537339362,16.282470028507838,9263
48.155912765398384,16.324636635283166,9265
48.21783604789668,16.309293564927113,9266
48.23118855516388,16.377058665686786,9275
48.26330419374943,16.383183144290935,9276
48.15531607875528,16.360952669161446,9278
48.237435445906144,16.30992535732583,9279
48.17698680272829,16.2731363224695,9280
48.18539253506657,16.371090000532288,9283
48.279208554336485,16.38256702338469,9285
48.23127746582031,16.30980110168457,9287
48.25716781616211,16.309415817260742,9290
48.25653990152139,16.420816899491925,9291
48.26526474692675,16.430186276729962,9292
48.20051687655241,16.41765727100165,9293
48.225674096672826,16.40097940391476,9294
48.24553007653705,16.30475155622044,9295
48.164759171409116,16.418574760660473,9298
48.22331711295845,16.309785322161737,9315
48.27170462078668,16.374918078143146,9322
48.24686386124547,16.369238158925814,9323
48.152211962672254,16.258069154559074,9325
48.21624907722198,16.28522592566973,9326
48.26024627685547,16.35260581970215,9327
48.158808368531716,16.342918652150985,9332
48.181616083233315,16.27751141524113,9337
48.25281838131545,16.39577738456657,9340
48.2523185933096,16.339924342621078,9342
48.179473876953125,16.363101959228516,9343
48.24793680457654,16.421176229493447,9344
48.25584843347589,16.382338826609644,9349
48.25397770872992,16.297047911396803,9350
48.24933481666523,16.341825628906278,9353
48.19235049238421,16.289659491025148,9354
48.17506170076442,16.410618540901023,9357
48.23623003252931,16.289378341814466,9361
48.15451316034405,16.31568768246816,9364
48.23181812921331,16.283102399904298,9367
48.234193017504055,16.409312742761166,9368
48.210950774076316,16.394104571302524,9370
48.194277169364604,16.330844636016327,9372
48.27427529214471,16.413612964947085,9373
48.253992615412244,16.357572271289335,9374
48.15909689875893,16.438758903397687,9375
48.20389512616523,16.31610388322953,9376
48.17027412043745,16.3326620012639,9387
48.193876404240676,16.284338220616302,9388
48.152134613977,16.26959639364598,9399
48.2285752752679,16.339624239885197,9402
48.150395776059305,16.328671779875048,9404
48.22094634213932,16.43828184675804,9407
48.18967440676577,16.303777489813267,9408
48.16011487394691,16.416675182181155,9410
48.23982962763835,16.358803495941004,9414
48.26403651729395,16.29739347433661,9426
48.24507141542839,16.424921216263662,9429
48.156148550400026,16.308465134384793,9430
48.27311464926917,16.389357671096988,9431
48.16536331176758,16.389892578125,9435
48.20167398891101,16.31170386728359,9438
48.23297443150592,16.438869070906737,9441
48.26428091508844,16.397640291734543,9444
48.24460939859377,16.409228374217513,9445
48.24434943036076,16.33320930840049,9446
48.158070894862966,16.279950775753253,9447
48.19351248120471,16.32084781057013,9462
48.178750292438195,16.34651540001544,9463
48.27699377321271,16.42276351757652,9466
48.26736034916487,16.26803994576374,9467
48.23590469046926,16.426139016383907,9468
48.21330010735548,16.340332125395406,9470
48.229125247184655,16.322738292034956,9471
48.25763597543518,16.395785109020224,9473
48.174767061648275,16.40478132098401,9476
48.20595594652548,16.38665632798368,9477
48.217592687760565,16.349074235697554,9478
48.23279421632129,16.413114374456228,9479
48.153412084863,16.282119252839337,9483
48.25287894928054,16.27353326168558,9486
48.16376876831055,16.299362182617188,9488
48.169052879271185,16.30644738031551,9492
48.20547955706328,16.419071616765915,9497
48.19262527249742,16.27119338589808,9498
48.208514,16.374044,1020
48.209481,16.366086,1021
48.215964,16.372222,1022
48.211699,16.376655,1023
48.211534,16.382375,1024
48.2068204586,16.3804461227,1025
48.206507,16.360413,1026
48.210425,16.3561,1027
48.203366,16.376719,1028
48.209921,16.36025,1029
48.202675,16.369512,1030
48.202157,16.371317,1031
48.218315,16.390165,1032
48.215878,16.38621,1033
48.215679,16.379656,1034
48.2177746805,16.3730862737,1035
48.2195207051,16.3822111487,1036
48.2178318696,16.3920307159,1037
48.217296,16.406171,1038
48.214382,16.414372,1039
48.209983,16.421406,1041
48.198857,16.376977,1042
48.210683,16.390219,1043
48.199239,16.394331,1044
48.19424,16.386581,1045
48.20341,16.389782,1046
48.1946314227,16.3771232904,1048
48.2056856411,16.3960100893,1049
48.19973,16.36816,1050
48.1928827613,16.3670703711,1051
48.1953090576,16.3633072318,1052
48.192705,16.354705,1053
48.19636,16.357409,1054
48.188476,16.343868,1055
48.183886,16.345832,1056
48.189527,16.351027,1057
48.187184,16.3639,1058
48.1852773109,16.3530230024,1059
48.1815485841,16.3580119111,1060
48.198527,16.350918,1061
48.1892597703,16.3383087516,1062
48.202107,16.360843,1063
48.2036756294,16.3374263048,1064
48.207249,16.343241,1065
48.201035,16.337727,1066
48.202161,16.352033,1067
48.206007,16.356432,1068
48.196727,16.343983,1069
48.215225,16.346449,1071
48.214592,16.361394,1072
48.226085,16.361919,1073
48.2227427415,16.3674402237,1074
48.215156,16.355145,1075
48.220343,16.356392,1076
48.235207235,16.3587445021,1077
48.2192937432,16.3524842262,1078
48.2251516404,16.354984504,1079
48.2264310459,16.3513474286,1080
48.184268,16.333931,1081
48.180249,16.33078,1082
48.1746,16.330276,1083
48.186833,16.314242,1085
48.190338016,16.3185596466,1086
48.1968293619,16.3385675848,1087
48.197436347,16.3385421038,1088
48.185866,16.319898,1089
48.1930844894,16.3339528441,1090
48.190817229,16.3255012035,1091
48.1961401257,16.3302540779,1092
48.1983642426,16.3189780712,1093
48.211754,16.339051,1094
48.2091991735,16.3334351778,1095
48.2100964698,16.3279902935,1096
48.2080176306,16.337940955,1097
48.2118588425,16.3117709756,1098
48.2107864119,16.3187983632,1100
48.216588,16.341481,1101
48.2180391794,16.3322925568,1102
48.2212604155,16.3345295191,1103
48.2195439374,16.3265419006,1104
48.2228169014,16.328497231,1105
48.224201,16.34903,1106
48.2317287031,16.3529804349,1107
48.2218188616,16.343716085,1109
48.2257109375,16.3442020238,1110
48.2366007253,16.3487452269,1111
48.229912,16.371582,1112
48.235136,16.369846,1113
48.237464,16.380315,1114
48.233619,16.383445,1115
48.2419403003,16.3848397136,1116
48.244026674,16.3792365789,1117
