,1020,1021,1022,1023,1024,1025,1026,1027,1028,1029,1030,1031,1032,1033,1034,1035,1036,1037,1038,1039,1041,1042,1043,1044,1045,1046,1048,1049,1050,1051,1052,1053,1054,1055,1056,1057,1058,1059,1060,1061,1062,1063,1064,1065,1066,1067,1068,1069,1071,1072,1073,1074,1075,1076,1077,1078,1079,1080,1081,1082,1083,1085,1086,1087,1088,1089,1090,1091,1092,1093,1094,1095,1096,1097,1098,1100,1101,1102,1103,1104,1105,1106,1107,1109,1110,1111,1112,1113,1114,1115,1116,1117
1020,0,277676,261509,112460,206738,167845,445953,419480,236374,331166,429939,314822,421451,268742,243395,208611,286868,335845,495536,599254,650231,346343,252028,437991,488436,403559,404672,335280,415261,537048,479280,687076,624535,671009,775952,616014,652749,750472,704256,640103,769761,452145,725242,615082,774894,628314,488745,767231,617104,291034,423766,414511,411087,552324,480013,552509,466247,521561,859888,914488,957081,1013495,976848,826465,810989,913950,855510,964321,892481,981401,635896,731970,807512,697916,953638,888965,615467,732864,733840,810216,821849,552791,578441,604208,605916,653611,391645,480281,574036,504070,642170,602930
1021,525109,0,264654,443094,401994,437949,335293,212311,506479,99020,568825,573732,616707,463998,423864,349121,467337,531101,690792,794510,845487,542768,447284,633247,692180,598815,600347,530536,429545,551332,493565,678234,611549,658023,762966,603028,667033,737486,777830,540134,723202,352176,518073,407912,567725,476974,281576,623921,440013,144709,384335,370022,240289,417524,503194,366632,375441,430755,846902,901502,980863,963261,866433,619295,603820,900867,731143,915380,685311,776059,428727,524801,600343,490746,747377,681795,444669,562065,604656,639417,655938,461985,487635,513402,515110,581406,423309,511945,605701,640621,726848,634594
1022,408153,207294,0,250940,285038,320993,424625,301642,389523,228852,583087,467971,499751,347042,306908,232165,350381,414145,573836,677554,728532,499491,330328,516291,639642,481859,557820,413580,518876,640663,582896,767565,700881,747354,852297,692359,756364,826817,857404,629466,812533,441508,607404,497244,657056,566305,370907,713253,499266,173196,357303,342990,293249,434486,464866,434671,348409,403723,936234,988584,1069490,1051820,954124,708627,693151,986106,820475,1006180,774643,865391,518059,614132,689674,580078,836708,771127,497629,615026,616002,692378,704011,434953,460603,486370,488078,554374,376498,465134,558889,563629,680037,587783
1023,217393,319454,214994,0,94278,130233,408341,380533,198763,372944,392327,277211,308991,156283,130935,96151,174408,223385,383076,486794,537772,308731,139568,325531,448883,291099,367061,222820,377649,499436,441669,649464,586923,633397,738340,578402,615137,712860,666644,602491,732150,414534,686294,576134,735946,590703,449798,729619,555867,285069,311306,302051,349849,491086,367553,491271,405009,460323,822276,876877,920750,977636,940107,787517,772041,876241,817898,924238,853533,943268,598256,693022,768565,660275,915599,850017,554229,671626,672603,748978,760611,491553,470668,542970,544679,541152,279185,367821,461577,391611,529710,490470
1024,257192,364526,260066,266014,0,170032,448140,425605,238562,418016,432126,317010,270828,115502,140697,141223,185758,185222,344913,448631,569953,348530,171749,357712,488681,323280,406860,255001,417448,539235,481468,689263,626722,673196,778139,618201,654936,752659,706443,642290,771949,454333,731367,621206,781019,630502,494870,769418,600939,330142,356379,347124,394922,536158,412626,536344,450081,505395,862075,916675,959268,1015683,979036,832589,817114,916137,857697,966508,898605,987313,643328,738095,813637,705347,959763,895089,599302,716698,717675,794050,805684,536626,515740,588043,589751,586224,324258,412893,480527,402960,541059,535542
1025,87160,364836,348669,199619,182825,0,278108,397598,68529,329027,262094,146977,347772,244830,310767,295770,357446,262166,421856,525575,576552,178498,178349,302096,320591,329880,236827,261601,247416,369203,311435,519231,456690,503164,608107,448169,484904,582627,536411,472258,601916,284300,570509,495813,620161,460469,328269,599386,645595,378194,510925,501671,484110,638621,567173,587729,553407,608720,692043,746643,791014,847380,809980,671731,656256,746008,687665,794005,737747,828495,598032,612702,677974,611792,799813,734231,684444,801841,821000,858469,895713,639951,665601,691368,693076,740771,478804,567440,617828,535417,622157,690089
1026,511018,235582,250563,429003,387903,423858,0,119490,347358,50920,337410,342317,602616,449907,409773,335029,453246,517010,676701,780419,831396,311353,433193,506761,460765,584724,368932,516445,198130,319917,262150,446819,380134,426608,531551,371613,435618,506071,546415,308719,497530,120761,292401,217706,342053,245559,50161,398249,367487,130618,370243,355931,206003,360513,489103,309621,361350,416664,615487,670087,751825,737582,640761,393623,378148,669452,505471,689708,459639,550388,319924,334594,399866,333685,521705,456123,406337,523733,566324,580361,617606,447894,473544,499311,501019,567315,409218,497854,591610,626530,712757,620503
1027,551083,279975,291883,470323,429223,465178,132982,0,366462,95313,356514,361421,643936,491228,451093,376350,478449,558330,718021,821739,872717,330457,474513,525865,479869,626044,388036,557765,217234,339021,281254,465923,399238,445712,550655,390717,454722,525175,565519,327823,510891,139866,305762,195601,355414,264663,69265,411610,263512,141800,348793,334480,90541,241023,467652,190131,309705,365018,634591,689191,770929,750943,654122,406984,391509,688556,518832,703069,473000,563749,252226,312490,388032,311580,535066,469484,290905,408302,450893,485654,502174,356773,450855,398208,412713,538070,425716,514352,608108,643028,722807,630553
1028,172723,450399,434232,285182,301656,198131,216449,335938,0,267368,200435,85318,466602,363660,416118,381333,459591,380996,540687,644406,647299,109969,297180,265931,252061,406662,175168,349393,185756,307543,249776,457571,395031,441504,546448,386509,423244,520967,474752,410599,540257,222641,508849,434154,558501,398810,266609,537727,583935,347066,586692,572380,422451,576962,652735,526070,577798,633112,630384,684984,729355,785721,748320,610072,594596,684349,626005,732345,676088,766836,536373,551043,616315,550133,738153,672572,622785,740182,782773,796810,834054,664343,689992,715759,717468,783764,564367,653003,736659,654248,740988,775652
1029,460098,184662,199643,378083,336983,372938,250087,127105,441468,0,483619,488526,551696,398988,358853,284110,402326,466090,625781,729499,780477,457562,382273,568236,606974,533804,515141,465525,344339,466126,408359,593028,526343,572817,677760,517822,581827,652280,692624,454928,637996,266971,432867,322706,482519,391768,196370,538715,354807,79698,319324,305011,155083,332318,438183,281426,310430,365744,761696,816296,898034,878048,781227,534089,518614,815661,645937,830174,600105,690854,343521,439595,515137,405541,662171,596589,359463,476860,519451,554211,570732,396974,422624,448391,450100,516395,358298,446934,540690,575611,661837,569583
1030,405017,409862,424843,517477,463103,415770,174281,293770,220397,225200,0,146176,628049,525108,584053,509310,627526,542444,702134,805853,761168,184392,458627,379800,333803,520531,241970,463262,143588,265375,207608,415404,352863,399336,504280,344342,381076,478799,498705,368431,498089,180473,466681,391986,516333,356642,224441,495559,541768,304898,544524,530212,380283,534794,663383,483902,535630,590944,588216,642816,724553,743553,706152,567904,552428,642181,583837,690178,633920,724668,494205,508875,574147,507965,695985,630404,580617,698014,740605,754642,791886,622175,647825,673591,675300,741596,583499,672135,765890,800811,887037,794783
1031,428934,433779,448760,541393,487020,439686,198197,317687,244313,249117,119239,0,651966,549024,607970,533226,651443,566360,726051,829769,785084,208308,482543,403716,357720,544447,265887,487179,167505,289292,231524,439320,376779,423253,528196,368258,404993,502716,522621,392347,522006,204389,490598,415903,540250,380558,248358,519475,565684,328814,568440,554128,404200,558710,687299,507818,559547,614861,612132,666732,748470,767469,730069,591820,576345,666097,607754,714094,657836,748584,518121,532791,598063,531882,719902,654320,604534,721930,764521,778558,815803,646091,671741,697508,699216,765512,607415,696051,789807,824727,910954,818700
1032,341478,529933,425473,391441,166933,254319,532426,591012,322848,583346,516413,401296,0,65736,196462,306630,242162,33071,192762,296480,421046,432817,149123,291418,443542,297330,491146,188707,501734,623521,565754,773549,711009,757482,862425,702487,739222,836945,775054,726577,856235,538619,824827,750132,874479,714788,582587,853704,766346,495549,521786,512531,560329,701565,578033,701751,615488,670802,947014,998791,1025660,1095382,1059027,925570,910389,995836,944874,1051977,989746,1078344,808735,867021,931978,866111,1051195,986106,764709,882105,883082,958843,970782,702033,681147,753450,755158,751631,392193,473582,388733,306323,393062,491509
1033,286645,464198,359738,336608,112100,199486,477593,525277,268015,517688,461580,346463,155326,0,130727,240895,177405,69721,229411,333130,457695,377984,185772,328067,480191,333980,436313,225356,446901,568688,510921,718716,656176,702649,807592,647654,684389,782112,735897,671744,801402,483786,769994,695299,819646,659955,527754,798871,700610,429813,456050,446795,494593,635830,512297,636015,549753,605067,891529,944020,988186,1044507,1008152,871217,855741,944961,887150,997846,935868,1025025,742999,812188,877460,805019,997718,932629,698973,816370,817346,893722,905355,636297,615411,687714,689422,685896,392662,474051,390673,308263,429712,507911
1034,323727,333471,229011,254106,200612,236567,514675,394550,305097,386961,498661,383545,318358,178781,0,110168,132108,232752,392443,496161,620727,415066,245902,431865,555217,397433,473395,329154,483983,605770,548003,755798,693257,739731,844674,684736,721471,819194,772978,708825,838484,520868,700312,590151,749964,659213,463815,806160,569884,299087,325323,316068,363866,505103,381570,505289,419026,474340,928610,980911,1023584,1078529,1042174,801534,786059,978983,913639,1034704,867550,956918,612273,707040,782582,674292,929293,864034,568246,685643,686620,762995,774628,505571,484685,556987,558696,555169,292156,380792,426878,349311,487410,504487
1035,386672,320169,233028,304657,263557,299512,408671,284382,368042,329456,561606,446490,369598,230020,163549,0,183348,283992,443683,547401,671967,478010,308847,494810,618161,460378,536340,392099,501616,623403,565635,750305,683620,730094,835037,675099,739104,809557,835923,612205,795272,424247,590144,479983,639795,549045,353647,695992,459716,188918,215155,205900,253698,394935,271402,395120,308858,364172,918973,971223,1052715,1034560,937553,691366,675890,969619,803214,989969,757382,848130,502105,596871,672414,564124,819448,753866,458078,575475,576452,652827,664460,395402,374517,446819,448528,445001,183034,271670,365426,374377,486573,394319
1036,411035,455699,351239,347220,274234,323875,587976,463687,392405,508761,585969,470853,252902,162134,135585,220571,0,167296,326987,430706,555271,502373,283348,425643,577767,431555,560703,322932,571291,693078,635311,843106,780565,827039,931281,772044,808779,906502,860286,791511,925625,603553,769449,659289,819101,728350,532952,875298,639021,368224,365540,367469,433004,558284,421787,558469,472207,527520,1016512,1068289,1108716,1163355,1109484,870672,855196,1063809,982497,1120026,935323,1024480,681410,776177,851720,743430,997173,932084,637384,754780,739800,832132,827809,558751,524901,610168,611876,595386,269853,358489,331902,254336,392435,449140
1037,339118,529099,424639,389081,164573,251959,530066,590178,320488,580986,514053,398936,86347,152083,282809,305796,234280,0,160432,264150,388716,430457,146763,289058,441182,294970,488786,186347,499374,621161,563394,771189,708649,755122,860065,700127,736862,834585,772694,724217,853875,536259,822467,747772,872119,712428,580227,851344,765512,494715,520952,511697,559495,700732,577199,700917,614655,669968,944654,996431,1023300,1093420,1057065,923210,908029,993874,942514,1049617,987387,1075984,807901,864661,929618,863751,1048835,983746,763875,881271,882248,958009,969949,701199,680313,752616,754324,750797,359863,441252,356403,273993,360732,459179
1038,554028,742483,638023,603991,379483,466868,744976,759701,535398,795896,728962,613846,212550,278285,409012,516585,360483,245621,0,107129,231694,645367,361672,503967,656091,509880,703696,401256,714284,836071,778304,985851,923410,968691,972123,914764,869271,1003290,863111,938670,1066547,751169,1036031,954925,1085152,927338,795137,1064808,934642,664238,647523,649452,729018,840266,651957,840452,754189,809503,1156567,1173589,1111540,1303410,1267054,1136038,1120858,1203864,1158921,1260080,1200215,1288441,976673,1069344,1142615,1037874,1260945,1195856,933225,1047262,1019200,1123476,1106812,840734,755071,892150,893859,825555,486066,567455,440373,400196,355142,453589
1039,678469,866923,762464,728431,503923,591309,869417,884142,659838,920068,853403,738286,336990,402726,533453,641025,484924,370061,136518,0,124566,760007,486113,520335,639919,529444,712665,420821,838725,854652,902744,997209,1031735,1005288,912023,973473,808072,942751,801911,1059359,1068044,875609,1158580,1076872,1206583,1047058,919573,1187064,1046713,788678,759996,761925,853458,952472,651599,952381,857294,899449,1105480,1113488,1051493,1304906,1268551,1200725,1185544,1205360,1160418,1261577,1249209,1410991,1043962,1143673,1218700,1097315,1364952,1314078,977149,1091186,1030132,1166233,1110751,851372,754713,902788,904497,825198,598539,587599,434937,395662,349705,448152
1041,669661,878424,773964,719623,513898,582501,860609,939169,651031,911529,844595,729479,468536,534272,641840,655121,616470,488873,273452,136934,0,692343,483637,452671,572255,461780,645000,353156,824813,786988,846324,929102,963524,939453,844616,907046,740407,875462,734247,1050945,1002082,866801,1149777,1075602,1140620,1038644,910770,1128127,1110621,844039,870276,861021,910403,1048044,788533,1048125,962766,1017380,1039240,1047381,986536,1238944,1202589,1134762,1119582,1139398,1094456,1195615,1183246,1369296,1156598,1190022,1256361,1189752,1374691,1309602,1108234,1222271,1166208,1298485,1247346,987556,891647,1038865,1039715,959828,735473,724533,571870,532595,486639,585086
1042,289343,500218,515199,401803,313733,266400,264636,384126,116621,315556,248622,133506,478679,375737,441675,454956,488354,393073,552764,656482,581201,0,309256,199833,185964,340564,130922,283296,197690,319477,261709,469505,406964,453438,540876,398443,435178,532900,430506,439050,552190,251092,545538,477456,595190,427261,303298,549660,632123,395253,634879,620567,470639,625149,726358,574257,625986,681300,642317,696917,685109,797654,760254,646761,631285,696282,637939,744279,712777,803525,579674,594344,653003,593435,774842,709261,666087,783483,826074,833498,877356,712530,738180,763947,765655,831951,637990,726626,748735,666325,753064,849275
1043,313697,542160,437700,363660,177634,226537,504645,603239,295067,555565,488631,373515,226909,230163,305576,318857,352254,141303,300994,404712,398203,360182,0,185963,338087,151531,428300,83252,473953,595740,537972,745768,683227,729701,779969,674706,675760,809164,669600,698795,828454,510837,797046,722351,846698,687007,554806,825923,778573,507775,534012,524757,572555,713792,590259,713977,627715,683029,918580,970830,923706,1068772,1032417,898268,882793,969226,914202,1024848,962414,1051512,820962,839239,904511,838330,1023979,958890,776935,894332,895309,970828,983138,714259,693374,765676,767385,763858,500425,581814,496965,414555,501294,599742
1044,382387,660063,602627,432350,342561,295228,493313,612803,276865,544233,477299,362183,415322,404565,470503,483784,517182,329716,489407,503513,423480,307984,238300,0,152124,182843,376103,125575,440455,536378,504474,678949,649729,689942,594007,641208,489797,624852,483637,681815,752415,493857,785714,711019,835366,670026,543474,792425,860800,623931,698939,689684,699316,853826,755186,802934,792642,847956,786407,799387,738240,997901,960041,886936,871461,896506,838163,946974,937137,1040507,813238,827907,893179,826998,1012864,947775,899650,1014009,1057842,1071038,1108565,879187,858301,930602,931983,928607,666818,755454,685379,602968,689708,788155
1045,436996,654507,657235,486958,397169,349836,418925,538415,265419,469845,402911,287795,538424,459173,525111,538392,571790,452818,612509,609283,529250,184390,353327,165214,0,305945,242266,248677,351979,384254,415287,526825,561253,537818,441882,504464,337673,472728,331513,593339,600291,405381,699827,631745,743358,581550,457587,703949,786412,549543,753548,744293,624928,779438,809795,728546,780275,835589,634283,647263,586116,845754,808354,736476,721000,744382,686039,792379,786378,956434,733964,748634,807293,747724,928808,863550,820376,937088,979377,986709,1031349,866819,892469,918295,919616,980937,721427,810063,808481,726070,812810,911257
1046,308636,586312,528876,358598,268809,221476,434692,554182,218244,485612,418678,303562,404241,330814,396751,410033,443430,318635,478326,492431,412399,249363,203748,78995,200500,0,317482,114493,381834,503621,445853,653649,591108,637582,642382,582587,538173,673228,532012,623194,736334,435236,727093,652398,776745,611405,484853,733804,802179,565310,625188,615933,640695,795205,681435,744313,718891,774205,826461,847763,786615,981821,944292,828316,812840,880426,822083,928423,894332,983039,754617,769287,834558,768377,955489,890816,841029,957166,984736,1013127,1051108,805435,784549,856852,858560,855033,593067,681703,674297,591887,678626,777074
1048,358260,535310,550291,470720,389825,342491,299729,419218,173640,350648,283715,168598,554771,451829,517767,531048,564445,469165,628856,732574,662887,99131,385348,298964,248543,439695,0,382427,183528,194305,238004,445800,402463,488530,409953,433535,305744,440799,299584,474142,568361,286185,580631,512548,630283,462354,338391,584752,667215,430346,669972,655660,505731,660241,788831,609350,661078,716392,602354,615334,554187,813825,776425,681853,666378,712453,654110,760450,747869,838617,614767,629437,688096,628527,809935,744353,701179,818576,861167,868591,912448,747623,773272,799039,800748,867044,708947,797583,824827,742417,829156,920306
1049,336207,613883,530810,386170,270744,249047,527155,646645,317577,578075,511141,396025,331325,332748,398686,411967,445364,245719,405410,400355,320322,358889,154303,102711,254835,128326,427007,0,491359,613147,555379,763175,700634,747107,696718,692113,592508,727563,586348,721305,845860,533348,819556,744861,869208,709517,577316,843330,871683,600885,627122,617867,665665,806902,683369,807087,720825,776139,889118,902098,840951,1085406,1049050,920484,905303,985860,934500,1042080,984586,1073073,847080,861749,926707,860840,1046086,980997,870045,985213,986670,1061427,1074283,807369,786484,858786,860494,856968,595001,683637,601381,518971,605710,704157
1050,350685,407712,422693,463145,408771,361438,172130,276331,166065,223050,156116,161023,573717,470776,536713,507160,583392,488112,647802,751521,706836,130060,404295,325468,279471,466199,187638,408930,0,203464,145696,353492,290951,337425,442368,282430,319165,416888,436793,323037,436177,135079,429525,361443,479177,311248,187285,433647,526161,302748,542374,528061,366872,517354,661233,466462,533480,588794,526304,580904,662641,681641,644241,530748,515272,580269,521926,628266,596764,687512,463662,478331,536990,477422,658829,593248,550074,667470,710061,717485,761343,620024,645674,657376,673149,739445,581348,669984,763740,761363,848103,792633
1051,477065,568269,583250,589524,508629,461296,332688,436888,292444,383607,316674,287403,673575,570634,636571,649853,683250,587970,747660,851379,790700,217936,504153,417769,367348,558500,220287,501231,160557,0,76839,284634,241297,351578,372274,296583,115701,331105,235641,389674,450331,295637,590083,522000,582840,437655,347843,453137,686719,463305,702931,688619,527429,677911,821790,627019,694037,749351,529474,579620,520036,695794,658394,575957,560482,594422,536079,642419,625860,816739,624219,638889,697548,637979,819387,753805,710631,828028,870619,878043,922998,780582,806232,817933,833707,900003,741906,830542,923926,861221,947718,953124
1052,477790,534817,549798,590250,535876,488543,299235,394157,293170,350155,283221,288128,700822,597880,663818,634265,710497,615216,774907,878626,833941,257164,531400,452573,406576,593304,311813,536035,143941,118370,0,207796,164459,274739,310126,219744,176176,282618,291097,312835,373492,252905,547351,479269,506001,360816,305111,376298,643988,429853,669479,655166,484698,635180,788338,584288,660585,715899,452635,507235,561657,618955,581555,499119,483643,517583,459240,565580,549021,739900,581488,596158,654817,595248,776655,711074,667900,785297,827888,835312,879169,747129,772779,775202,800254,866550,708453,797089,890845,888468,974424,919850
1053,519256,557255,572236,631716,577343,530009,321673,390851,334636,372593,324688,329595,742289,639347,705285,656703,751963,656683,816374,919643,875407,298631,572866,494039,448043,634770,356210,577502,185408,247360,189592,0,53327,125588,230531,70593,205922,205051,245395,170740,224341,249599,404843,429781,356850,235966,301805,227147,596032,452291,691917,677605,481392,631874,810776,580982,683023,728927,314467,369067,450805,469804,432404,349968,334492,368432,310089,416429,399870,590749,514344,539366,583267,538456,705106,639524,600757,718153,760744,763762,812026,704132,795217,708059,760071,885429,730892,819527,913283,929710,1015934,942261
1054,465929,503928,518909,578389,524015,476682,268346,337524,281309,319266,271361,276268,688962,586020,651957,603376,698636,603356,763047,866765,822080,245304,519539,440712,394715,581443,302882,524175,132081,194033,136265,238469,0,218258,323201,163263,217096,297721,323050,214159,317011,196272,490718,422636,444183,279385,248478,314480,587354,398964,638590,624277,428065,578547,757449,527655,629696,685010,407137,461737,543475,562474,525074,437301,421825,461102,402759,509099,487203,678082,524855,539524,598183,538615,720022,654441,611267,728663,771254,778678,822536,694297,741890,718569,750237,835661,677564,766200,859956,876607,962724,888849
1055,709805,684052,699033,822265,767891,720558,448471,517648,525185,499390,515236,520143,932603,829896,858243,783500,901716,847232,1006070,1040528,960920,489180,763415,684588,585023,825319,546758,768050,375957,419453,380141,190549,243876,0,136791,124935,337147,237888,265920,250267,98753,345407,289813,407831,241820,315493,428602,229039,481002,579088,756149,804402,608189,631923,747790,581031,643883,613897,188879,243479,325217,344216,306816,234938,219462,242844,184501,290841,284840,475719,399315,424336,468237,423427,590076,524495,485727,603124,645715,648732,696996,589102,701390,593029,645042,770399,857689,873661,969927,1020099,1001874,910803
1056,714475,747657,762638,826935,772561,725228,512075,581253,529855,562995,519906,524813,937272,834565,900503,847104,947576,851901,1010740,923731,843750,493849,768085,633135,467921,773866,441307,716598,380626,368368,384811,195219,248546,95935,0,134675,264330,101097,148818,313872,158408,409011,349469,467487,301475,379097,492207,288694,540658,642693,815804,868006,671793,691578,807446,640686,703539,673553,192401,207409,254383,403872,366471,294593,279118,302500,244156,350497,344495,535375,458970,483992,527893,483082,649732,584150,545382,662779,705370,708388,756651,648757,761045,652685,704697,830054,920803,932927,1029302,1079474,1060826,969755
1057,594462,632461,647442,706922,652548,605215,396879,466057,409842,447799,399894,404800,817495,714553,780490,731909,827169,731889,891579,976301,896720,373837,648072,569245,520891,709976,431415,652708,260614,304110,264798,75206,128533,69768,159938,0,221804,134458,174802,214067,168521,309206,359581,470897,311588,279292,377011,237793,550770,527497,767123,752810,556597,701691,817558,650799,713651,683665,258647,313247,394985,413984,376584,304706,289230,312612,254269,360609,354608,545487,469083,494104,538005,493195,659844,594263,555495,672892,715483,718500,766764,658870,771158,662797,714810,840167,806097,894733,986910,1006591,1070939,979868
1058,581103,672307,687288,693562,612667,565334,436726,540926,396482,487645,420712,391441,777613,674672,740609,753891,787288,692008,851698,847003,766970,321974,608191,521807,391142,662538,246694,605269,264595,104038,180877,231410,281025,316293,256573,246525,0,215404,119940,402150,414982,399675,606042,626038,558049,467376,451881,458557,790757,567343,806969,792657,631467,781949,925750,731057,798075,853389,448974,463919,404335,660445,623045,551167,535691,559073,500730,607070,601069,791948,715544,740565,784466,739655,906305,840724,801956,919178,960970,964195,1012929,884620,910270,909258,936820,1001443,845944,933882,1026658,967513,1051221,1055183
1059,683072,721071,736052,795532,741159,693825,485489,554667,498452,536409,488504,493411,906029,803163,869101,820519,915864,820499,979343,944773,865145,462447,736682,654531,489317,795262,461410,737993,349224,310146,353408,163816,217143,173040,100092,103272,214715,0,143228,317339,258500,412479,449560,567578,401567,382565,465621,341065,640750,616107,855733,841421,645208,791670,907537,740778,803631,773645,292493,307501,351623,503964,466563,394685,379209,402592,344248,450588,444587,635466,559062,584083,627985,583174,749823,684242,645474,762871,805462,808480,856743,748849,861137,752776,804789,929884,894708,981202,1075265,1094726,1155740,1068113
1060,677734,790750,805731,790194,709299,661966,555168,624346,493114,606088,547730,488073,874245,771303,837241,850522,883920,788639,919394,801950,721918,418606,699416,511303,346089,652034,319475,594765,391614,235733,312572,233495,286822,232569,136634,172951,131695,141215,0,387018,295042,482158,486102,604120,438109,452244,535300,410744,677291,685786,925354,911291,714887,828212,943549,777320,840172,810186,329034,343979,284395,540505,503105,431227,415751,439133,380790,487130,481129,672008,595604,620625,664526,619716,786365,720784,682016,799413,842004,845021,893285,785391,897679,789318,841331,966143,963472,1049870,1096731,1063112,1013368,1104124
1061,565273,499742,514724,677733,623359,576026,264161,302244,380653,315080,370705,375611,788306,685364,673934,599190,717407,702700,862390,964597,921372,344648,618883,540056,494059,680787,402226,623519,231425,346064,288297,261045,194360,240834,345777,185839,346954,320297,360641,0,333338,170260,347887,284590,315075,65226,231208,156640,465593,394778,634404,620092,392785,501785,734905,450893,570466,601012,429713,484313,566050,585050,497621,308193,292718,483678,346358,527182,358096,548975,386429,401479,455352,400569,577191,511609,472842,590238,632829,635847,684111,576216,688504,580144,632156,757514,673379,762015,855771,890691,976802,884664
1062,726849,760030,775011,839308,784935,737602,524449,593626,542228,575368,532280,537187,949389,846939,913005,859478,960211,864275,1023053,1014712,935104,506223,780458,701632,559367,842362,532753,785094,393000,436496,397184,207592,260919,108309,111135,147049,354190,212232,240264,326245,0,421385,361842,479860,313849,391471,504581,301068,553031,655066,828178,880380,684167,703952,819819,653060,715912,685926,158397,212997,294734,313734,276333,306967,291491,212362,207846,260036,313379,466832,471344,496365,540266,495456,662105,596524,557756,675152,717744,720761,769025,661131,773419,665058,717071,842428,933070,945301,1041676,1091848,1073200,982129
1063,443592,342850,357831,536272,495172,454345,107269,173627,258972,158188,249024,253931,666625,557176,517041,442298,560515,581019,740710,844428,799743,222967,497202,418375,372379,559106,280546,501838,109744,231531,173764,357636,290952,337425,442369,282430,347232,416888,457233,187958,436178,0,326821,258739,376473,176169,84581,344598,423458,237886,477512,463200,264168,414650,596371,363758,468618,523932,526305,580905,662642,681642,644241,428044,412568,580270,521926,628266,484201,584808,360958,375628,434287,374718,556125,490544,447370,564767,607358,614782,658639,530400,580813,554672,586340,674584,516487,605123,698878,733799,820026,727772
1064,685938,491787,506768,685209,644109,680064,256206,294096,501317,307125,491369,496276,858821,706113,665978,591235,709452,773215,932736,1034567,1041294,465312,689399,660721,614724,801451,522891,744183,352089,473876,416109,461759,470660,328577,365302,401216,589577,466399,494431,276300,254167,274721,0,118018,98690,264462,223253,225446,191189,386823,466335,541152,332886,342110,457977,291218,354070,324084,412564,467164,548901,494219,397398,150261,134785,456647,262109,446345,216277,307025,109502,134523,178424,133613,300263,234681,195914,313310,355901,358919,407183,299289,411577,303216,355229,480586,613414,583848,681722,732763,713132,620878
1065,648362,440066,455047,633487,592387,628342,240377,207769,463742,255404,453794,458701,807100,654391,614257,539513,657730,721494,881185,983149,1004546,427737,637677,623145,577148,763876,485315,706608,314514,436301,378533,490043,475956,410463,447188,414837,552002,548286,576317,281596,336053,237145,130924,0,180576,269759,166545,236773,204034,335102,479418,542249,298310,355192,471059,304300,367152,337166,494450,549050,630787,576105,479284,232147,216671,538533,343995,528231,298163,388911,122584,137254,212796,136344,360228,294647,208996,326392,368984,392146,420265,312371,424659,316298,368311,493668,613702,596930,694804,745845,726214,633960
1066,739984,545834,560815,739255,698155,734110,310252,348143,555364,361172,545415,550322,912756,760159,720025,645282,763498,827262,986106,1087937,1094307,519359,743445,714767,668770,855498,576937,798229,406136,527923,470155,408772,462099,275590,312315,348228,555370,413412,441443,330346,201180,328767,54046,172064,0,318509,277299,206498,245236,440870,520382,595198,386932,396156,512023,345264,408117,378131,359576,414177,495914,441232,344411,97273,81798,403660,209121,393358,163289,254038,163548,188569,232471,187660,354309,288728,249960,367357,409948,412966,461229,353335,465623,357262,409275,534632,667460,637895,735769,786809,767178,674924
1067,628667,434517,449498,627938,586838,622793,198935,237019,444047,249855,434098,439005,801551,648842,608708,533965,652181,715945,875636,977600,984851,408042,632128,603450,557453,744181,465620,686912,294819,416606,358838,341338,274653,321127,426070,266132,427248,400590,440934,80293,362036,214994,282661,219365,265012,0,165982,205233,400367,329553,569179,554866,327559,436559,669679,385667,505241,535786,510006,564606,646343,585974,489153,258130,242654,548402,369978,538100,308032,498911,321204,336253,390126,335344,511965,446384,407616,525013,567604,570622,618885,510991,623279,514918,566931,692288,608153,696789,790545,825465,911692,819438
1068,481818,293026,308007,486448,445348,481303,93338,89046,297198,108364,287249,292156,660060,507352,467217,392474,510691,574454,734145,837864,837968,261192,490638,456601,410604,597331,318771,540063,147969,269756,211989,396658,329973,376447,481390,321452,385457,455910,496254,258558,447369,70601,242240,174158,291892,195398,0,348088,338876,188062,427688,413376,179586,330069,546547,279177,398750,454064,565326,619927,701664,687421,590600,343463,327987,619291,455311,639547,409479,500227,276376,291046,349705,290137,471544,405962,362789,480185,522776,530200,574058,445819,530989,470091,501759,624760,466663,555299,649054,683975,770202,677948
1069,713732,618661,633642,812082,770982,724485,383079,420970,529111,433999,519163,524070,936529,832987,792852,718109,836325,851158,1009997,1111828,1068687,493106,767341,688515,642518,829245,550685,771977,379883,474687,416920,253270,280655,206297,292911,178064,399868,312522,352866,156064,181776,326324,223085,279325,175092,221290,350126,0,414274,513697,689421,739011,511511,565195,681062,514303,577155,547169,340173,394773,476510,489448,340981,168210,152734,394138,189718,375620,218112,408991,332587,357608,401509,356699,523348,457767,418999,536396,578987,582004,630268,522374,634662,526301,578314,703671,792298,806933,904807,954946,936448,843963
1071,615658,351202,355204,533644,492544,528499,310013,177031,543494,272345,533545,538452,707256,554548,514414,439670,541769,621651,781341,885060,935945,507488,537834,702897,656900,689365,565067,621086,394265,516052,458285,642954,576269,551584,588309,567748,631753,689406,717438,419815,477174,316897,272045,162149,321697,407977,246296,398921,0,205121,361713,410153,141696,180767,410148,129875,249448,276255,635570,690171,771908,717226,620405,373268,357792,679654,485115,669352,439284,530032,148630,258364,333906,210649,484211,431648,148085,265482,308073,342833,359354,251460,363748,255387,307400,432757,489036,536019,633893,684934,665303,573049
1072,410538,146082,150083,328523,287423,323378,277245,152956,391907,140537,509470,470355,502136,349427,309293,234549,336649,416530,576221,679939,730916,483413,332713,518676,632824,484244,540991,415965,370190,491977,434209,618878,552194,598668,703611,543673,607678,678131,718475,480779,663846,292821,458717,348557,508369,417619,222221,564566,328290,0,239626,225314,122272,316809,358485,272999,230732,286046,787547,842147,923387,903898,807077,559940,544464,841512,671788,856024,625956,716704,370679,465445,540988,432698,688021,622440,326652,444049,486640,521401,537921,317277,342926,368693,370402,436697,283916,372552,466307,501228,587454,495200
1073,472513,406010,318869,390498,349398,385353,494512,370223,453882,415296,647447,532330,564111,411402,371268,296524,383762,478505,638196,741914,792891,563851,394688,580651,704002,546219,622180,477940,587457,709244,651476,836145,769461,815935,900361,760940,824945,895397,921854,698046,789226,510088,584097,545822,633749,634886,439487,781833,437752,274759,0,122375,339539,275412,261728,275598,189335,244649,948275,1000052,1080596,1028513,931506,685320,669844,989870,797167,983923,751336,842084,469395,570416,645958,522701,792912,740349,401494,518891,456929,595174,544938,275880,285767,327297,329005,379538,186356,256033,354752,389672,476899,384645
1074,350138,283635,196494,268123,227023,262978,372137,247847,331507,292921,525072,409955,441736,289027,248893,174149,276098,356130,515821,619539,670516,441476,272313,458276,581627,423844,499805,355565,465082,586869,529101,713770,647086,693559,798503,638565,702570,773022,799389,575671,758738,387713,553609,443449,603261,512510,317112,659458,423181,152384,215750,0,217164,358401,311733,358586,272324,327638,882439,935318,1016309,998709,901969,654832,639356,935872,766680,953449,720848,811596,465570,560337,635880,527590,782913,717332,421544,538941,539917,616292,627926,358868,384518,410285,411993,478289,223365,312001,405756,440677,526903,434649
1075,523709,259253,263254,441694,400594,436549,222337,89355,455818,184669,445869,450776,615307,462598,422464,347720,449820,529701,689392,793110,844087,419812,445884,615221,569224,597415,477391,529136,306589,428376,370609,555278,488594,535067,640010,480072,544077,614530,654875,417179,600246,229221,395117,284957,444769,354018,158620,500966,220553,113171,292790,278477,0,216154,411649,165262,283896,339210,723947,778547,860284,840298,743477,496340,480864,777912,608188,792424,562356,653104,277561,387295,462837,339581,610333,557771,218915,336312,378903,413664,430185,322290,396090,326218,378230,489861,397087,485723,579478,614399,666804,574550
1076,519532,255076,259077,437517,396417,432373,291393,158412,500902,249532,514926,519833,611130,458422,418287,343544,445643,525524,685215,788934,839911,488869,441708,627671,638281,593239,546447,524960,375646,497433,439665,624335,557650,604124,708130,549129,613134,683587,723931,486235,596996,298277,391867,351044,441519,423075,227677,570022,242973,108994,237837,253985,112066,0,313122,69927,125571,176061,755392,809993,891730,837048,740227,493089,477614,799476,604937,789174,559105,649854,277165,378185,453728,330471,600682,548119,209264,326660,341625,404012,420533,160576,266722,211993,216516,341873,384915,438994,536867,587908,568277,476023
1077,625771,559268,472127,543756,502656,538611,603389,470407,607140,558755,800705,685588,630202,490624,448129,449782,443952,544596,630560,656950,781516,717109,547946,733909,857260,699477,775438,631198,687641,809429,751661,920387,869646,787528,824253,860167,924851,925164,952617,784289,713118,610273,507990,542284,557642,735070,539672,725160,395612,418218,256796,275633,424062,311996,0,312181,205695,247850,871515,924395,1005300,953178,856350,609212,593737,915695,721060,905297,675228,765976,393288,494308,569851,446594,716804,664242,325387,442783,380822,519067,457854,199773,103114,251189,252898,173599,224932,125871,223745,274786,255155,162901
1078,570424,305968,309969,488409,447309,483265,341485,209304,551794,300424,559466,564373,662022,509314,469179,394436,496535,576416,736107,839825,890803,533410,492600,678562,682821,644131,590988,575852,420187,541974,484206,668875,602191,601478,638203,593670,657675,728127,767332,496022,527069,342818,321940,281116,371592,467616,272217,517889,173046,159886,235840,304877,162958,50892,311125,0,123575,178889,685465,740065,821803,767121,670300,423162,407687,729549,535010,719247,489178,579926,207238,308258,383801,260544,530755,478192,139337,256733,299324,334085,350606,170643,264725,222060,226583,351940,382918,436997,534871,585911,566280,474026
1079,574520,361377,359408,492505,451405,487360,397694,264712,555890,355832,621226,626133,666118,513410,473275,398532,494050,580512,740203,843921,894899,595169,496695,682658,744581,648226,652748,579947,481946,603733,545966,730635,663951,689575,726300,655429,719434,789887,830232,591615,615166,404578,410037,376710,459689,529375,333977,613483,268640,215295,149566,224382,218367,106301,187551,106486,0,70589,773562,828162,909900,855218,758397,511259,495784,817646,623107,807344,577275,668023,295335,396355,471898,348641,618852,566289,227434,344830,282869,421114,370877,101820,141150,153236,154945,234921,296644,313422,411296,462336,442706,350452
1080,630462,430385,431208,548447,507347,543302,466702,333720,611831,424840,690234,690279,722060,569351,529217,454473,541711,636454,796145,833153,950791,664177,552637,738600,813589,704168,721756,635889,550954,672742,614974,799643,732959,673445,710170,724437,788442,811268,839299,660725,599035,473586,393907,428201,443559,598383,402985,611077,281529,284303,221366,280324,287375,175309,176203,175596,94060,0,757432,812032,893770,839088,742267,495129,479654,801516,606977,791214,561145,651893,279205,380225,455768,332511,602721,550159,211304,328700,266739,404984,354747,85690,129803,137106,138815,198812,344305,302074,399948,450988,431358,339104
1081,769981,803163,818144,882441,828067,780734,567581,636759,585361,618501,575413,580320,991772,890072,956429,902611,1004239,907317,1065494,1057970,978361,549356,823591,744764,602500,885495,575885,828227,436133,479629,440317,250725,304052,151442,154268,190181,397323,255365,283397,369378,161083,464518,400340,518358,352347,434604,547713,339566,591529,698199,866676,923704,727300,742450,858317,691558,754411,724425,0,161150,242887,301175,263775,345465,329989,199803,195611,247800,301143,454274,509842,534863,578765,533954,681759,632247,596254,713651,756242,756485,807523,699629,811917,703556,755569,880926,975735,982744,1079119,1129291,1110926,1019854
1082,891998,924787,940041,1002617,948902,902751,689598,758775,707378,740518,697429,702336,1110860,1010636,1076740,1022553,1125488,1026405,1184582,1178108,1098500,671372,945192,866781,724516,1006503,697902,949434,558149,601645,562334,372741,426069,273458,276284,312198,519340,377382,405413,491395,272349,586534,511606,629624,463612,556620,669730,450831,702795,820215,977858,1048463,844491,853715,968387,802823,865676,835690,122017,0,215440,302984,265584,456730,441255,201612,306876,270824,412409,456082,621107,646129,690030,645219,683568,646683,707519,824916,867507,867751,919886,810894,922790,814822,866834,991564,1095366,1091801,1188176,1238348,1220034,1128962
1083,896219,959464,975740,1006838,927613,880450,726002,795179,711599,776921,733833,706557,1089357,989347,1055450,1058567,1104199,1004902,1139584,1019919,940310,637090,917838,729788,564573,870518,537959,813250,594553,465020,541859,409145,462472,309862,213927,348602,360982,273505,245470,527798,372335,622938,563395,681413,515402,593024,706134,502621,754584,856619,1028905,1085021,885720,905505,1018280,854613,916912,887479,232582,153139,0,403378,357494,508520,493044,292735,414876,395639,520408,552688,672897,697918,741820,697009,780173,743288,759309,876706,919332,922260,970270,862684,972632,866611,918295,1043227,1130791,1141694,1238069,1278102,1231118,1178856
1085,949176,959878,976154,1059998,1005282,959461,726416,764306,764055,777335,754106,759013,1167199,1067016,1133005,1058981,1176677,1082744,1240921,1233528,1153919,728049,1001531,923058,781193,1062020,754579,1004951,614826,658323,619011,429418,482746,330135,332961,368875,576017,434059,462090,548072,322547,643211,470210,588228,416164,613297,693463,478985,661399,857033,936488,1010803,803096,812320,927901,761428,824280,794294,178694,236698,309132,0,121252,379798,364322,66623,282547,230355,261864,239701,579712,562628,520282,603823,467187,430302,666124,709842,804167,669257,754424,769499,881787,773426,825439,950305,1078596,1051315,1147690,1197862,1179548,1088476
1086,951527,886351,901332,1062349,1006303,961864,650769,688660,766406,701689,756457,761364,1168220,1068037,1058502,984478,1102174,1083765,1241942,1235531,1155923,730400,1002552,925409,783544,1064371,756930,1007302,617177,660674,621362,431770,485097,298587,335312,371226,578368,436410,464441,484291,224177,579430,394563,512581,340517,549516,617816,347602,585753,781387,860899,935927,727449,736673,852540,685781,748634,718648,228477,286482,353571,148467,0,304151,288676,59249,151165,183868,186218,195194,504065,486981,475775,528177,422679,385794,590477,665334,750465,624750,709917,693852,806140,697779,749792,875149,1004497,976967,1073342,1123514,1105149,1014077
1087,829680,668510,683491,861931,820831,840433,432928,470819,645059,483848,635111,640018,1032981,882835,842701,767957,886174,948526,1106703,1118336,1038728,609054,866121,804463,663273,944512,636659,887925,495831,540402,501091,311498,364826,178316,215041,250955,458097,316139,344170,272012,103906,442272,176722,294740,128729,337238,399975,115948,367911,563546,643058,717874,509608,518832,634699,467940,530793,500806,262303,316903,398640,411579,263111,0,106371,316268,111848,297751,171749,362628,286224,311245,355147,310336,476985,411404,372636,490033,532624,535642,583905,476011,588299,479938,531951,657308,790136,760571,858445,909485,889854,797600
1088,845155,683985,698966,877407,836307,855908,448404,486294,660535,499323,650587,655493,1048205,898311,858176,783433,901650,963749,1121926,1133303,1053694,624530,881597,819938,678749,960029,652135,903401,511307,555878,516566,326974,380301,193792,230517,266430,473572,331614,359646,287488,119382,457748,192198,310216,144205,352714,415451,131424,383387,579021,658533,733350,525084,534308,650175,483416,546268,516282,277778,332379,414116,427054,278587,15476,0,331744,127324,313226,187225,378104,301700,326721,370622,325811,492461,426879,388112,505508,548099,551117,599381,491487,603775,495414,547427,672784,805612,776046,873920,924654,905330,813076
1089,939621,949831,965399,1050443,995816,950035,715528,753419,754589,766448,744641,749548,1157734,1057551,1122251,1048226,1165922,1073279,1231456,1208648,1129039,718584,992066,913762,771728,1052555,745113,995485,605361,648857,609545,419953,473280,320670,323496,359409,566551,424593,452625,524467,255923,619606,459322,577341,405276,589692,682575,412361,650512,846146,925600,1000126,792208,801432,917221,750540,813393,783407,169228,227233,294322,110643,64759,368910,353435,0,215924,163732,250977,259953,568824,551740,540534,592936,487439,450553,655236,730094,815224,689509,774676,758611,870899,762538,814551,939500,1067708,1040636,1137010,1187182,1168868,1077797
1090,844333,748999,763980,942217,901320,855086,513417,551308,659713,564337,649764,654671,1064194,963083,923319,848447,966884,979739,1137916,1131405,1051797,623707,897942,819116,676851,959207,650237,902578,510484,553980,514669,325076,378403,191894,228619,264533,471675,329716,357748,352502,117484,472737,257212,375230,209218,417727,480464,196437,448401,644035,723547,798364,590097,599322,715189,548430,611282,581296,275189,329789,411527,299731,151263,202336,186861,210512,0,204992,163040,336424,366713,391735,435636,390825,557475,491893,453126,570522,613113,616131,664395,556500,668788,560428,612440,737798,870626,841060,938271,988443,970351,878090
1091,913993,863020,878002,1024816,970489,924701,627439,665329,729262,678358,719314,724221,1132407,1032224,1035676,961652,1079348,1047952,1206129,1199530,1119922,693257,966739,888665,746401,1027800,719786,970731,580034,623530,584218,394626,447953,261444,298169,334082,541224,399266,427298,447147,187034,542287,371233,489251,323240,512373,594486,310459,562422,758056,837569,912576,704119,713343,829210,662451,725303,695317,263219,321224,393657,265518,117051,303211,287735,176300,114021,0,185277,302212,480735,486041,475722,504847,529698,492812,567147,673421,727135,640619,725786,670522,782810,674449,726462,851819,981950,954199,1050574,1100746,1082192,991121
1092,894283,700133,715114,893554,852454,888409,464551,502442,709663,515471,699714,704621,1063996,914458,874324,799581,917881,979541,1137718,1233541,1153933,673658,897744,869066,781207,1008788,731236,951719,560435,658336,619024,429432,482759,296250,332974,368888,576030,434072,462103,389946,221840,483066,208345,326364,154299,455171,431598,233881,399535,595169,674681,749497,541231,550455,666322,499563,562416,532430,375174,429774,511512,277942,181121,117933,102458,240371,151366,230068,0,190879,317847,300763,315212,341959,421453,355871,404259,512911,564247,480109,565276,507634,619922,511561,563574,688931,821759,792194,890068,940368,921708,829223
1093,961674,766945,781926,959224,919095,955128,531363,569254,776475,582283,766526,771433,1129301,980829,941065,866392,984737,1044846,1203023,1304854,1313127,740469,963633,935368,889881,1073946,798048,1016877,627246,749033,691266,590234,643562,457052,493777,529691,736833,594875,622906,551457,382642,549878,275157,393175,244439,539620,498410,411958,466346,661980,741493,816309,608043,617267,733134,566375,629227,599241,426611,484616,554015,247918,200444,296010,280534,259693,309630,384312,183030,0,384659,341072,280581,391793,233885,190601,471071,470141,564466,429556,514723,574446,686734,578373,630386,755743,888571,859006,956437,1006609,988173,896035
1094,750938,486482,490483,668923,627823,663779,362083,274370,590014,324415,580065,584972,842536,689828,649693,574950,677049,756930,916549,1018380,1070765,554008,673114,749417,703420,824645,611587,756366,440785,562572,504805,536136,589463,402954,439679,475592,678273,540776,568808,399715,328544,363417,123415,170391,173067,387877,292816,340586,135280,340400,410426,485243,276976,286200,402068,235308,298161,268175,486940,541541,623278,568596,471775,224638,209162,531024,336486,520722,290654,381402,0,109734,185276,62019,352719,287138,140004,245489,299992,294497,351274,243379,355667,247307,299319,424676,557504,527939,625813,676853,657223,564969
1095,765708,557412,569044,747484,706384,742339,357723,325115,581088,372750,571140,576047,920862,768388,728254,653510,755610,835491,994334,1096165,1119842,545083,751674,740491,694495,881222,602662,823954,431860,553647,495880,542867,593302,409685,446410,482323,669348,547507,575539,398942,335275,354491,130146,130317,179798,387105,283891,347316,213840,418961,488987,563803,355537,364761,480628,313869,376721,346735,493671,548272,630009,575327,478506,231368,215893,537755,343216,527453,297384,342525,132153,0,75542,68750,281506,215925,218565,254406,337654,254892,340059,321940,434228,325867,377880,503237,636065,606499,704373,755414,735783,643529
1096,842622,631989,635991,814431,773331,809286,434637,402029,658002,449663,648053,652960,986936,835335,795201,720457,822557,902438,1060658,1162489,1195397,621996,818621,817405,771408,957496,679575,900867,508773,630561,572793,619780,670216,486598,523323,559237,746261,624421,652452,475856,412188,431405,207059,207231,256711,464018,360804,424230,280787,485908,555934,630750,422484,431708,547575,380816,443668,413682,570585,625185,706922,533799,442659,308282,292806,501908,412904,491605,286304,285882,209066,76914,0,145664,215503,158758,285512,219441,321549,186639,271807,388887,501175,381912,444827,570184,703012,673446,771320,822361,802730,710476
1097,747333,553183,568164,746604,705504,741459,317601,355492,562713,368521,552765,557671,919982,767509,727374,652631,770847,834611,993455,1095286,1101467,526708,750794,722116,676119,862847,584286,805579,413485,535272,477504,474117,527444,340934,377659,413573,620715,478757,506788,337695,266524,336116,61396,179414,111048,325858,284648,278566,252585,448219,527731,602548,394281,403505,519373,352613,415466,385480,424921,479521,561259,506577,409756,162618,147143,469005,274466,458703,228634,319382,170897,99805,168861,0,290700,225118,257309,354211,417297,349356,434523,360684,472972,364612,416624,541981,674809,645244,743118,794158,774528,682274
1098,1002803,769361,773363,950969,910532,946565,572622,595190,817734,623542,807785,812692,1120908,972266,932579,857829,959590,1036452,1194630,1296461,1353073,781728,955240,975754,930878,1105998,839307,1037631,668505,790292,732525,729137,782464,595955,632680,668594,875735,733777,761809,592716,521545,591137,316416,409963,366068,580878,539669,533587,418159,623280,693305,768122,559856,569080,684947,518188,581040,551054,679942,734542,808507,502410,454936,417639,402163,514185,514397,593099,387798,254492,402094,279646,202732,348396,0,78569,422884,349341,443666,308756,393923,526259,638547,519284,582199,682609,840384,810818,908692,958831,940333,847848
1100,924132,720365,724366,902806,861706,897661,494052,531943,739164,544972,729216,734123,1073248,923766,883576,808832,910932,988793,1146970,1248801,1276534,703159,906977,898567,852570,1037354,760737,980284,589936,711723,653955,650568,703895,517385,554110,590024,797166,655208,683239,514146,442976,512567,237847,338360,287499,502309,461099,455017,369162,574283,644309,719125,510859,520083,635950,469191,532043,502057,601372,655972,729938,423840,376367,339069,323594,435616,435828,514530,309228,175923,340195,208043,131129,276793,94201,0,373887,300344,394669,259760,344927,477262,589550,470287,533202,636212,791387,761822,859695,910736,891105,798851
1101,685884,421428,425429,603869,562769,598724,380238,247256,613719,342570,603770,608677,777482,624773,584639,509895,611995,691876,851567,953773,1006295,577714,608059,773122,727125,759590,635292,691311,464491,586278,528510,595324,646495,462142,498867,534780,701979,599964,627996,458903,387732,387122,182603,216898,232255,447065,316521,399774,70225,275346,315539,390356,211922,191313,307181,140421,203274,173288,546128,600729,682466,627784,530963,283826,268350,590212,395674,579910,349842,440590,67901,168922,244464,121207,391418,338855,0,162514,205105,239866,256386,148492,260780,152420,204432,329789,462617,433052,530926,581966,562335,470081
1102,803644,539187,543189,721629,680529,716484,497998,365016,731479,460330,721530,726437,895242,742533,702399,627655,729755,809636,968654,1070485,1124463,695473,725819,890882,844885,877350,753052,809071,582250,704037,646270,713084,764255,579902,616627,652540,819738,717724,745756,576663,505492,504882,300363,334658,350015,564825,434281,517533,187985,393106,433299,508115,329682,309073,424940,258181,321034,291048,663888,718489,800226,697611,616446,401585,386110,675695,513433,665393,460091,449693,185661,211727,192543,238967,337376,284813,117760,0,132526,77352,128411,266252,378540,207309,296595,417709,580377,550812,648686,699726,680095,587841
1103,870339,609762,613763,788324,747224,783179,568572,435590,802053,530904,792104,797011,961296,809228,769094,694351,789869,876331,1035018,1088664,1192713,766047,792514,960433,915467,943363,823626,875766,652824,774612,716844,783658,834829,650476,687201,723114,890312,788298,816330,647237,576066,575456,370937,405232,420589,635399,504855,588108,258559,463680,445385,520201,400256,367440,437026,328755,333119,303133,734462,789063,870800,781014,699850,472160,456684,759099,584007,748797,538176,533097,256235,295130,275947,309541,420780,368217,188334,83404,0,155096,104860,241204,390626,142352,227057,348171,592463,562898,660771,711812,692181,599927
1104,874147,609690,613692,792132,751032,786987,568501,435519,801982,530833,792033,796940,965104,813036,772902,698158,800258,880139,1038825,1140656,1196483,765976,796322,960362,915396,947171,823555,879574,652753,774541,716773,783587,834758,650405,687130,723043,890241,788227,816259,647166,575995,575385,370866,401733,420518,635328,504784,588037,258488,463609,503802,578618,400185,379576,495443,328684,391537,361551,734391,788992,870729,664986,617513,472089,456613,676762,583936,676830,471529,417069,256164,271416,202653,309470,310867,241146,188263,70503,164828,0,115085,336755,449043,276587,319532,432314,650880,621315,719189,770229,750598,658344
1105,917398,653794,657795,835141,794041,829996,612604,479622,846085,574936,836136,841043,1006998,856045,815911,741168,836686,922543,1080720,1135448,1239140,810079,839331,1003779,958465,990693,867658,922326,696856,818644,760876,827690,878861,694508,731233,767146,933808,832330,860362,691269,620098,619488,414969,449264,464621,679431,548887,632140,302591,507712,492202,567018,444288,411472,483843,372787,379937,349950,778494,833095,914508,730452,682979,516192,500716,742228,628039,742296,536995,482534,300267,329591,268119,353573,376333,306612,232366,117865,126606,65466,0,325155,437443,238366,281310,394092,639280,609715,707588,758629,738998,646744
1106,629135,386687,390689,547120,506020,541975,423005,290023,610505,381143,646537,651444,720733,568025,527890,453147,548665,635127,794818,852773,949465,620480,551310,737273,769892,702841,678059,634562,507257,629044,571277,720938,689261,587756,624481,660395,744745,725578,753610,584517,513346,429889,308217,342512,357869,554686,359288,525388,195839,240606,204181,278997,243677,131611,195822,131899,91916,61929,671743,726343,808080,753398,656577,409440,393964,715826,521288,705524,475456,566204,193516,294536,370078,246821,517032,464469,125614,243011,181049,319294,269058,0,149422,51417,93074,218431,351259,321694,419568,470608,450977,358723
1107,653277,483346,487347,571263,530163,566118,519663,386681,634647,477801,743195,713095,744875,592167,552033,477289,564526,659270,818960,855969,973738,717138,575453,761416,866550,726984,774717,658705,603915,725702,667935,817596,785920,684414,721139,757053,841403,822236,850268,681175,610004,526547,404875,439170,454527,651344,455946,622046,292498,337264,284303,303140,340336,228270,199019,228557,174722,144736,768401,823001,904738,850056,753235,506098,490622,812484,617946,802182,572114,662862,290174,391194,466736,343480,613690,561127,222272,339669,277707,415952,354740,96658,0,148075,149783,161338,367121,324890,422764,473804,454174,361920
1109,755822,495625,499626,673807,632707,668662,454435,321454,687916,416767,677968,682875,847420,694711,654577,579834,675352,761814,921433,977462,1075648,651911,677997,847319,801323,829528,709490,761249,538688,660475,602708,669521,720692,536339,573064,608978,776176,674162,702193,533100,461929,461319,256800,291095,306452,521263,390719,473971,144423,349543,330868,405684,286119,253304,322509,214619,218602,188616,620326,674926,756663,701981,605160,358023,342547,664410,469871,654107,424039,514787,142099,243119,318661,195405,465615,413052,74197,191594,129632,267877,217641,126687,276109,0,133644,254758,477946,448380,546254,597295,577664,485410
1110,698808,456361,460362,616794,575694,611649,492678,359697,680178,450816,716211,721117,790406,637698,597564,522820,618338,704801,864491,921997,1018531,690154,620984,806947,839565,772515,747732,704236,576931,698718,640950,769818,758935,636635,673360,709274,814419,774458,802489,633396,562226,499562,357097,391391,406749,621559,428962,574267,244719,310279,273854,348671,313351,201285,265496,201572,161589,131603,720622,775222,856960,802278,705457,458319,442844,764706,570167,754404,524335,615083,242395,343415,418958,295701,565912,513349,174494,290102,223550,318397,252931,69674,219096,100296,0,185889,420933,391367,489241,540282,520651,428397
1111,605772,539269,452128,523757,482657,518612,583390,450409,587142,538757,780706,665590,697370,544661,504527,429784,517021,611764,771455,808463,926075,697110,527947,713910,837261,679478,755440,611199,667643,789430,731662,900712,849647,767530,804255,840168,905131,905352,933333,764291,693120,590274,487991,522286,537643,715072,519674,705162,375613,398220,236798,255634,404063,291997,151513,292182,185696,227852,851516,906117,985478,933223,836351,589214,573738,895600,701062,885298,655230,745978,373289,474310,549852,426595,681077,608624,305388,381293,314741,403103,337637,179774,83116,231191,172425,0,319615,277384,375258,426299,406668,314414
1112,524020,457517,370376,442005,400905,436860,546019,421730,505390,466803,698954,583837,464329,324752,282257,321851,278080,378724,538414,642133,766698,615358,446195,632158,755509,597726,673687,529447,638964,760751,702983,887652,820968,867442,971111,812447,876452,946349,972639,749553,878771,561595,673642,617331,723294,686393,490994,833340,527297,326266,172214,174143,391046,364958,228461,365143,278881,334195,1037196,1088973,1168105,1116331,1017873,774865,759389,1076237,886713,1070854,840881,930881,558941,659961,735503,612247,882457,829894,491039,608436,546474,684719,634483,365425,331576,416842,418550,402060,0,104460,203179,238099,334886,265313
1113,601941,535438,448297,519926,478826,514781,623940,499651,583310,544724,776875,661758,552030,417804,375309,414903,371132,466424,610924,629369,753935,693279,524116,710079,833430,675647,751608,607368,716885,838672,780904,964640,898889,936674,972388,890368,953549,1022163,1048955,827474,862450,639516,657321,691616,706973,764314,568915,874492,544944,404187,249874,251803,468967,442618,149332,442803,355027,397182,1021441,1073218,1152350,1100243,1002329,758544,743068,1060693,870392,1055310,824560,915308,542620,643640,719182,595926,866136,813573,474718,592115,530153,668398,607186,349104,252446,400521,402229,322930,108876,0,139773,184592,230426,160852
1114,662370,626559,539418,598555,539255,575210,715061,590772,643739,635846,837304,722187,481687,429415,386920,471906,382743,441152,475360,493806,618372,753708,557203,699498,851622,705411,812037,596787,808006,929273,872025,1052995,988631,1033075,1089546,979148,1042838,1110282,1074717,918464,980511,730637,776000,786373,825652,855435,660037,989798,663623,495308,340995,342924,560088,533739,268011,533924,447662,502976,1138344,1190120,1269252,1216269,1116036,877223,861747,1174399,988773,1169016,941874,1031031,661299,762319,837861,714605,982566,931353,593397,710794,648832,787077,725865,467783,371125,519200,520908,441609,206475,160578,0,79579,159166,142712
1115,599650,644314,539854,535835,473458,512490,757412,633123,581019,678197,774584,659467,432658,361358,324200,409185,320023,366520,426332,444777,569343,690988,482572,624867,776991,630779,749317,522156,759906,881693,823925,1030490,968566,1013010,1115802,959083,995987,1090217,1046664,960490,1033492,772988,829872,828724,879524,897786,702388,1042648,717495,537660,383346,385275,602439,576090,321883,576275,490013,545327,1191325,1243101,1293410,1269186,1168953,930615,915434,1227317,1041661,1221934,994792,1083389,715171,816191,891733,768477,1035682,984924,647269,764666,702704,840949,779737,521655,424997,573072,574780,495481,248827,213898,82411,0,165720,199648
1116,731155,719144,632003,674084,556609,643995,807645,683356,712524,728430,906089,790972,389676,455412,462449,547435,458272,422747,383350,401795,526361,822493,538799,681094,833218,687006,880822,578383,891411,1010258,954705,1143644,1079280,1087748,1091722,1069796,991435,1124125,984393,1009428,1013818,823222,809883,844178,859535,948019,752621,1022974,697506,587893,416672,435509,652673,613889,301894,614075,507589,549744,1171650,1223427,1231139,1249529,1149295,910940,895630,1207659,1021986,1202276,975134,1063827,695182,796202,871744,748488,1016149,964438,627280,744677,682715,820960,759748,501666,405008,553083,554791,475492,346770,237894,146364,172302,0,98447
1117,746426,679923,592782,664411,623311,659266,768424,644135,727795,689209,919080,806243,481930,541716,499222,570437,495044,515001,475604,494049,618615,837764,631053,773348,925473,779260,896093,670637,861369,980980,924875,1105141,1040777,1049491,1084595,1031293,1077351,1162427,1069282,970678,975560,784001,770977,805272,820629,908798,713400,984775,658599,548672,377451,396288,613452,574983,262987,575168,468682,510837,1133393,1185169,1264301,1211245,1111012,872199,856724,1169376,984024,1163993,936851,1026007,656275,757295,832838,709581,977612,926329,588374,705770,643809,782054,720841,462760,366101,514176,515885,436586,284197,175321,141763,199847,92254,0
