,1020,1021,1022,1023,1024,1025,1026,1027,1028,1029,1030,1031,1032,1033,1034,1035,1036,1037,1038,1039,1041,1042,1043,1044,1045,1046,1048,1049,1050,1051,1052,1053,1054,1055,1056,1057,1058,1059,1060,1061,1062,1063,1064,1065,1066,1067,1068,1069,1071,1072,1073,1074,1075,1076,1077,1078,1079,1080,1081,1082,1083,1085,1086,1087,1088,1089,1090,1091,1092,1093,1094,1095,1096,1097,1098,1100,1101,1102,1103,1104,1105,1106,1107,1109,1110,1111,1112,1113,1114,1115,1116,1117
1020,0,175669,170722,69666,139633,99517,286026,277759,145891,214147,272874,194826,297838,186005,162810,140636,201783,230903,368064,460057,494309,217447,177333,299922,312736,301271,258783,242693,263987,352702,317281,461149,418261,448380,519552,407619,428220,503888,486492,378663,526405,286221,491539,423064,526367,380873,319515,444005,392622,182820,310004,299041,263313,362116,357678,358592,297418,336347,589944,630832,693248,658853,650411,552757,540241,602431,560970,675342,586635,659353,442056,501402,547439,485128,663095,605617,394102,463837,502293,512868,570787,357662,390435,398973,393589,456119,278575,350369,424715,375196,494969,471667
1021,365757,0,182365,309150,279320,303448,231620,141993,349822,66120,420556,398757,437525,325692,287159,236058,326132,370591,507751,599745,633997,401213,317021,446701,496502,440959,442549,382381,319515,408230,372808,498003,455116,485234,556407,444474,483747,540743,562804,348485,528859,256043,371636,287298,406463,332919,199611,413827,286183,93901,263132,251808,156874,270920,350838,235143,245248,284177,626799,667687,735887,690895,631962,445909,433392,639286,519039,678876,492693,539449,310023,365636,411673,356160,543191,485714,287663,357398,417433,406429,464348,305492,338265,346803,341419,403950,298567,370360,444707,482520,559679,491658
1022,306355,151977,0,187677,219919,244046,310461,220834,290420,166778,417403,339355,378124,266291,227758,176657,266730,311190,448350,540343,574596,361977,257619,387300,453575,381558,403312,322979,398356,487071,451650,576844,533957,564075,635248,523315,562588,619584,631021,427327,607700,334884,450477,366139,485304,411760,278453,492668,335697,125895,258377,247053,206389,305191,346083,301667,240493,279422,705640,746528,814728,769736,710803,524750,512233,718127,597880,757717,571534,618291,385131,444477,490514,428203,613798,564555,337178,406913,445368,455943,513862,300737,333510,342048,336664,399195,279618,351412,425758,437769,540731,472710
1023,156404,226370,169124,0,69967,94094,280604,277018,140468,264848,267452,189403,228172,116339,93144,70971,132117,161238,298398,390391,424644,212025,107667,237348,303624,231606,253360,173028,258564,347280,311858,455726,412838,442957,514129,402196,422797,498466,481069,373240,520982,280798,486117,422324,520944,375450,314093,438582,374192,206383,240338,229375,244884,343542,288013,340162,278844,317773,584521,625410,687825,653430,644989,547334,534818,597009,555547,669919,581212,653930,423626,495782,541819,466698,652293,600195,375672,445408,483720,494438,552357,339088,353064,380399,375015,399808,208910,280703,355050,305531,425303,402001
1024,187318,243910,186664,173965,0,125009,311518,294559,171383,282389,298366,220318,211785,83996,87009,88511,125981,144851,282011,374005,445458,242939,128482,258162,324438,252420,284275,193842,289479,378194,342773,486640,443753,473872,545044,433111,453712,529380,511984,404155,551897,311713,517031,439864,551859,406365,345007,469497,391732,223923,257878,246915,262424,361083,305553,357703,296384,335314,615436,656324,718740,684345,675903,578249,565733,627923,586462,700834,612127,684845,441166,513322,559359,484238,669833,624633,393213,462948,501260,511978,569898,356629,370605,397940,392556,417349,226450,298243,358358,299395,419168,419541
1025,62309,237978,233031,131975,123697,0,186509,265520,46374,218596,173357,95309,247754,170069,207870,202945,249679,180819,317980,409973,444225,117930,127249,200405,213219,251187,159266,192609,164470,253185,217764,361631,318744,348863,420035,308102,328703,404371,386975,279146,426888,186704,392022,342469,426850,281356,219998,344488,452301,245129,372313,361350,322993,424425,419988,391589,359727,398656,490427,531315,593731,559335,550894,453240,440723,502914,461453,575825,487118,559836,419244,420806,466843,423363,563578,506100,453781,523517,564602,572547,630466,419971,452744,461282,455898,518429,340885,412678,460098,401135,491339,533976
1026,353988,148157,170596,297381,267551,291679,0,79010,264982,32087,254433,256152,425756,313923,275390,224289,314362,358822,495982,587976,622228,235090,305251,396821,330379,429190,276426,370612,153392,242107,206686,331880,288993,319112,390284,278351,317624,374620,396681,182363,362736,89921,205513,155960,240340,166796,33489,247705,265792,82132,251363,240039,136483,240856,339069,205079,233479,272408,460676,501564,569765,524772,465839,279786,267269,473163,352916,512753,326570,373327,232735,234297,280334,236853,377068,319591,267272,337007,397042,386038,443957,293723,326496,335034,329650,392180,286797,358591,432937,470751,547910,479889
1027,391427,185596,208036,334820,304991,329118,96256,0,289112,69526,278563,280282,463196,351363,312830,261729,351245,396261,533422,625415,659667,259220,342691,420950,354509,466629,300556,408051,177522,266237,230816,356010,313123,343241,414414,302481,341754,398750,420811,206493,386866,114050,229643,145306,264470,190926,57619,271834,199101,104571,239627,228303,69792,161846,327334,126069,206240,245170,484806,525694,593894,548902,489969,303916,291399,497293,377046,536883,350700,397457,198247,223643,269680,226199,401198,343721,200581,270316,330351,319346,377266,237247,304601,278558,273174,370285,312266,384059,458406,496219,545212,470704
1028,131960,292800,302682,201626,200885,145035,144644,223654,0,176730,131491,53443,324941,247257,285057,272597,326866,258007,395167,487161,482543,76064,204436,204836,171353,296849,117400,248343,122604,211319,175898,319766,276878,306997,378169,266236,286837,362506,345109,237280,385022,144838,350156,300603,384984,239490,178132,302622,410435,226776,396007,384682,281127,385500,483713,349723,378122,417052,448561,489450,551865,517470,509029,411374,398858,461049,419587,533959,445252,517970,377379,378941,424978,381497,521712,464235,411916,481651,541686,530681,588600,438367,471140,479678,474294,536824,410536,482329,537285,478322,568527,603627
1029,321901,116070,138510,265294,235465,259592,179142,89515,305966,0,368078,354901,393670,281837,243304,192203,282276,326735,463896,555889,590141,348735,273165,402845,444024,397103,390071,338525,267037,355752,320331,445525,402638,432757,503929,391996,431269,488265,510326,296008,476381,203566,319158,234821,353985,280441,147134,361350,233705,50046,219276,207952,104397,218442,306983,182666,201392,240322,574321,615209,683410,638417,579484,393431,380914,586808,466561,626398,440215,486972,257545,313158,359195,303683,490714,433236,235185,304921,364955,353951,411870,261637,294410,302948,297563,360094,254711,326504,400851,438664,515823,447802
1030,288435,268083,290523,358101,313630,284230,119926,198937,154236,152013,0,97750,437687,360002,395316,344216,434289,370752,507913,599906,570713,124345,317182,286075,219634,392422,165681,343916,97887,186602,151181,295048,252161,282280,353452,241519,262120,337788,343471,212563,360305,120121,325439,275886,360267,214773,153415,277905,385718,202058,371289,359965,256410,360782,458995,325006,353405,392334,423844,464732,532933,492752,484311,386657,374140,436331,394870,509242,420535,493253,352661,354223,400260,356780,496995,439517,387198,456934,516968,505964,563883,413649,446422,454960,449576,512107,406724,478517,552864,590677,667836,599815
1031,300213,279861,302300,369879,325408,296008,131704,210714,166014,163791,79220,0,449464,371780,407094,355993,446066,382530,519690,611684,582490,136123,328959,297853,231411,404200,177458,355694,109665,198380,162959,306826,263938,294057,365230,253296,273897,349566,355248,224340,372083,131898,337217,287664,372044,226550,165193,289682,397496,213836,383067,371743,268187,372560,470773,336783,365183,404112,435622,476510,544710,504530,496089,398435,385918,448109,406647,521019,432312,505031,364439,366001,412038,368557,508772,451295,398976,468711,528746,517742,575661,425427,458200,466738,461354,523884,418501,490295,564641,602455,679614,611593
1032,233270,345781,288534,262584,101871,170960,357470,396429,217334,384259,344318,266269,0,43096,120707,190381,171689,29302,166462,258456,355157,288891,108388,234511,350065,232327,330226,144647,335430,424145,388724,532592,489704,519823,590995,479062,499663,575332,557935,450106,597848,357664,562983,513429,597810,452316,390958,515448,493603,325794,359749,348786,364294,462953,407424,459573,398255,437184,661387,702276,764691,730296,721855,624200,611684,673875,632413,746785,658078,730796,543037,591767,637804,586109,734538,677061,495083,564818,603130,613849,671768,458499,472475,499810,494426,519219,325630,382569,308580,249617,339822,394892
1033,190174,302685,245439,219488,58775,127865,314374,353334,174239,341164,301222,223174,127790,0,77611,147286,128593,60856,198016,290009,386711,245795,131337,261018,327294,255276,287130,176201,292335,381050,345629,489496,446609,476727,547900,435967,456567,532236,514840,407011,554753,314568,519887,470334,554715,409221,347863,472352,450507,282698,316653,305690,321199,419858,364328,416478,355159,394089,618292,659180,721595,687200,678759,581105,568588,630779,589318,703690,614982,687701,499941,548671,594708,543013,691443,633965,451988,521723,560035,570753,628672,415404,429380,456715,451331,476124,285225,357018,316166,257203,371375,402478
1034,221157,233337,176091,172805,134721,158848,345357,283985,205222,271815,332205,254157,246083,129012,0,77938,101979,179149,316309,408303,489397,276778,172421,302101,368377,296359,318114,237781,323318,412033,376612,520479,477592,507711,578883,466950,487551,563219,545823,437994,585736,345552,513628,429291,548456,440204,341604,503336,381159,213350,247305,236342,251851,350510,294980,347129,285811,324741,649275,690163,752579,718184,709742,587901,575384,661762,620301,734673,634685,681442,430593,502749,548786,473665,659260,614060,382639,452375,490687,501405,559324,346056,360031,387367,381982,406775,215877,287670,334356,275393,395165,408968
1035,288244,227244,175700,231637,201807,225935,295675,206048,272309,229072,399292,321244,281706,164635,120061,0,137602,214772,351932,443926,540627,343865,239508,369188,435464,363446,385201,304868,383569,472284,436863,562058,519170,549289,620462,508528,547802,604798,612910,412540,592913,320098,435690,351353,470518,396974,263666,477882,303222,135412,169367,158404,173913,272572,217042,269192,207873,246803,690854,731742,799942,754950,696017,509963,497447,703341,583094,742930,556748,603504,352655,424811,470848,395727,581322,536122,304702,374437,412749,423467,481387,268118,282094,309429,304045,328838,137939,209732,284079,291380,399052,331030
1036,290391,324432,267186,242040,184253,228082,414592,358994,274456,362910,401439,323391,208201,125478,96221,162341,0,141267,278427,370421,467122,346012,220353,346476,437611,344292,387348,256612,392552,481267,445846,589714,546826,576945,648117,536184,556785,632454,615057,507228,654970,414786,588637,504300,623464,509438,416613,572570,456168,288359,277346,280095,326859,413554,325021,411022,348855,387785,718509,759398,821813,787418,778977,662910,650393,730997,689535,803907,709694,756451,505602,577758,623794,548674,734269,689069,457648,527383,553731,576414,627866,409100,390073,450411,445026,436817,205015,276808,263564,204601,324373,349875
1037,255686,368197,310951,285001,124287,193377,379886,418846,239751,406676,366734,288686,68628,111724,189335,212798,189289,0,138854,230847,327549,311307,114994,241117,356670,238932,352643,151253,357847,446562,411141,555009,512121,542240,613412,501479,522080,597748,580352,472523,620265,380081,585399,535846,620227,474733,413375,537865,516020,348210,382166,371203,386711,485370,429840,481990,420672,459601,683804,724692,787108,752713,744271,646617,634101,696291,654830,769202,680495,753213,565454,614184,660220,608526,756955,699477,517500,587235,625547,636266,694185,480916,494892,522227,516843,541636,298022,354960,280972,222009,312214,367283
1038,400188,512699,455453,429502,268789,337879,524388,563347,384252,551177,511236,433187,166918,210014,287625,357300,287579,196220,0,94538,191239,455809,275306,401429,516983,399245,497144,311565,502349,591064,555642,699510,656622,686741,757914,645980,666581,742250,720745,617024,764767,524582,729901,680347,764728,619234,557877,682366,660521,492712,503895,506644,531213,629872,523273,626491,565173,604102,828306,869194,927389,897214,888773,791119,778602,840793,799331,913703,824996,897715,709955,758685,804722,753027,901456,843979,662001,731737,770049,780767,838686,625417,588325,666729,661344,635069,396312,453250,371458,320299,303739,385437
1039,503298,615809,558563,532612,371899,440989,627498,666458,487363,654288,614346,536298,270028,313124,390735,460410,390689,299331,131572,0,96701,558919,378417,390066,467634,419354,529162,328318,605459,644673,658753,776100,759733,781711,710456,743523,638116,725514,626207,720135,834382,627692,833011,783458,867839,722345,660987,785476,763631,595822,607006,609755,634323,732982,539394,729602,668283,707213,858155,867500,832963,969593,958696,894229,881712,910442,902248,982742,928061,1001941,813065,861795,907832,856137,1007363,947392,765112,834847,829068,883877,894494,684437,604446,725748,720224,651190,499422,511760,387578,366396,319860,401558
1041,488860,612491,555245,518175,368581,426551,613061,663140,472925,645147,599908,521860,363953,407049,452753,457092,484614,353200,225497,93925,0,497381,355328,315386,392955,344675,454483,253639,591021,569994,604373,701421,733516,707032,635776,668844,563437,650835,551528,705697,759703,613255,818573,769020,844919,707907,646549,771039,760314,592504,626459,615497,631005,729664,633319,726284,664966,703895,783476,792821,758284,892150,883709,853887,841370,835729,827569,908640,887764,987231,809748,847358,893394,849914,992815,932844,761794,831529,869841,880559,938610,725210,698370,766521,761137,745114,593347,605684,481503,460321,413784,495482
1042,212599,332745,355185,275307,213084,183683,184589,263599,80638,216675,171436,93388,337140,259455,297256,301595,339065,270206,407366,499359,453822,0,216635,161782,131468,268128,93574,219622,145001,233716,198295,342162,299274,329393,400566,288632,309233,384902,321284,277225,407419,184783,390101,340548,424929,279435,218077,342567,450380,266721,435951,424627,321072,425445,518637,389668,418067,456997,470958,511846,528039,539866,531425,451319,438803,483445,459532,556356,485197,557915,417324,418886,464922,421442,561657,504180,451861,521596,581631,570626,628545,478312,511085,519623,514239,576769,439534,511327,549484,490521,580726,632625
1043,221102,362727,305480,250417,118816,158793,345302,413375,205167,377389,332150,254102,162609,165188,202989,207327,244798,95675,232835,324829,316977,263771,0,155224,264229,123939,312509,65361,323263,411978,376557,520424,477537,507656,578828,466895,487496,563164,532696,437939,585681,345497,550815,501262,585643,440149,378791,503281,510549,342740,376695,365732,381240,479899,424369,476519,415201,454130,649220,690108,739452,718128,709687,612033,599516,661707,620246,734618,645911,718629,559983,579599,625636,582156,722371,664893,512029,581764,620076,630795,688714,475445,489421,516756,511372,536165,345266,417060,374953,315990,406195,461264
1044,263616,439285,417371,292931,230707,201307,347355,426365,202711,379442,334203,256155,306200,277079,314880,319218,356689,239265,376426,395072,323509,224927,175927,0,115554,137815,273666,89309,323152,402487,376445,520313,477425,507544,468269,466783,395929,483328,384021,439992,585570,347549,552868,503315,587696,442202,380844,505333,613147,429487,488586,477623,483838,588211,536260,552434,527092,566021,615969,625313,590776,718017,709576,614086,601569,661596,622299,734506,647963,720682,580090,581652,627689,584208,724424,666946,614627,684362,731967,733393,791312,587336,601312,628647,623263,648056,457157,528951,518544,459581,549785,604855
1045,312914,438087,460526,342229,280005,250605,289930,368941,202737,322017,276778,198730,402749,326377,364178,368516,405987,335815,472975,442154,370590,127176,260799,128018,0,234365,171421,185859,250342,286933,303636,418360,404616,423971,352715,385783,280376,367774,268467,382567,476642,290125,495443,445890,530271,384777,323419,447909,555722,372062,537884,526921,426414,530786,585558,495010,523409,562338,500415,509760,475223,609089,600648,556661,544144,552668,544508,625579,590539,663257,522665,524227,570264,526784,666999,609521,557202,626937,686972,675968,733887,583653,616426,624964,619580,682111,506455,578249,615093,556130,646335,699547
1046,215470,391139,369225,244785,182561,153161,299209,378219,154565,331296,286057,208009,288399,228933,266734,271072,308543,221465,358625,389929,318365,176781,145063,53875,140290,0,225520,84165,275006,363721,328299,472167,429279,459398,493006,418637,420666,508064,408757,391845,537424,299403,504722,455169,539549,394055,332698,457187,565001,381341,440440,429477,435692,540065,488114,504288,478946,517875,600962,641851,615513,669871,661430,565940,553423,613450,574152,686360,599817,672536,531944,533506,579543,536062,676277,618800,566481,636216,683821,685247,743166,539190,553166,580501,575117,599910,409011,480805,500743,441780,531985,587054
1048,258307,354636,377075,326794,264571,235171,206479,285489,124109,238565,193327,115278,388627,310943,348743,353082,390552,321693,458853,518908,447344,67092,268122,228874,162380,335220,0,286714,154162,148807,183186,327305,314498,351284,311958,310523,224325,327016,227709,299115,429309,206673,411992,362439,446819,301325,239968,364457,472271,288611,457842,446518,342962,447335,545548,411558,439958,478887,459657,469002,434465,561757,553315,473210,460693,505335,481422,578246,507087,579806,439214,440776,486813,443332,583547,526070,473751,543486,603521,592516,650436,500202,532975,541513,536129,598659,491021,562814,600971,542008,632213,684112
1049,253334,429002,388428,282648,201765,191025,377534,456544,237398,409620,364382,286333,253317,248136,285937,290275,327746,186383,323543,323180,251616,277353,123044,89864,205417,109148,326091,0,355495,444210,408788,552656,509768,539887,558133,499126,485793,573191,473884,470170,617913,377728,583047,533493,617874,472380,411023,535512,593497,425688,459643,448680,464188,562847,507318,559467,498149,537078,681451,715177,680640,750360,741919,644264,631748,693939,652477,766849,678142,750861,610269,611831,657868,614387,754602,697125,594977,664712,703024,713743,771662,558393,572369,599704,594320,619113,428215,500008,465661,406698,496903,551972
1050,253092,269653,292093,322758,278287,248886,121496,200507,118893,153583,108344,110063,402343,324659,362459,345786,404268,335409,472569,564562,535369,89001,281838,250732,184290,357078,130337,308572,0,145857,110435,254303,211415,241534,312706,200773,221374,297043,302725,199148,319559,106706,323571,275251,358399,201358,151547,264490,387288,203628,372859,361535,257980,362352,460565,326576,354975,393904,383098,423987,492187,452007,443566,373242,360725,395586,381455,468496,407120,491385,352027,353589,399625,356145,495127,437649,388768,458504,518538,507534,565453,415219,447992,456530,451146,513677,408294,480087,554434,555724,645929,601385
1051,333964,370253,392692,402451,340227,310827,222096,301106,199765,254182,208944,190935,464284,386599,424400,428738,466209,397349,534510,626503,560120,142748,343779,304530,238037,410877,148592,362371,100599,0,50725,194844,182037,253916,262832,209516,75517,244432,156869,269228,331942,207305,424171,375851,403679,291719,252147,303894,487888,304228,473459,462134,358579,462952,561165,427175,455575,494504,391757,419876,387364,464389,455948,412647,400130,407968,399808,480879,446524,566135,452626,454188,500225,456744,595726,538249,489368,559103,619138,608133,666053,515819,548592,557130,551746,614276,508893,580687,655033,617665,707869,701985
1052,349028,365590,388029,418694,374223,344823,217433,296443,214829,249519,204281,205999,498280,420595,458396,441722,500205,431345,568506,660499,631306,184938,377775,346668,280227,453015,220287,404509,103240,92114,0,144119,131312,203192,217211,158791,127949,201547,207302,218503,281217,190335,385900,358880,352954,240994,235176,253170,483225,299565,468796,457471,353916,458289,556502,422512,450912,489841,341032,374255,421202,413665,405223,361922,349405,357243,349083,430154,395800,515411,435656,437218,483255,439774,578756,521279,484705,554440,614475,603470,661390,511156,543929,552467,547083,609613,504230,576024,650370,651661,741865,697322
1053,385157,383249,405688,454822,410352,380951,235092,312540,250958,267179,240409,242128,534408,456724,494524,459381,536333,467474,604634,696627,651443,221066,413903,382797,316355,489143,262402,440637,139368,185116,151062,0,41740,94045,165218,53285,151043,149554,171615,119635,172071,187200,276753,297954,243808,156849,232042,144023,415561,317224,486455,475131,371575,474386,574161,438609,468571,507500,235610,276498,344698,304518,296077,252776,240259,248097,239937,321008,286653,406265,361697,371378,408761,373934,500241,442763,420645,490380,550415,539410,597329,498777,561588,501033,534704,627273,521889,593683,668029,687789,777994,714981
1054,343417,341509,363948,413082,368611,339211,193352,270800,209218,225438,198669,200387,492668,414983,452784,417641,494593,425733,562894,654887,625694,179326,372163,341056,274615,447403,220662,398897,97628,144743,109322,175797,0,163028,234201,122268,168229,218537,240598,145899,241054,145460,323082,314006,290136,183113,190302,190352,444645,275484,444715,433391,329835,432645,532421,396869,426831,465760,304593,345481,413681,373501,365060,299104,286587,317080,307317,389991,332982,452593,390781,392343,438380,394899,533881,476404,449728,519464,579498,568494,626413,487075,519848,528386,523002,585532,480149,551943,626289,646049,736253,673241
1055,532261,466884,489323,601927,557456,528056,318727,389562,398062,350814,387514,389232,681513,603828,594117,543017,633090,614578,751739,779130,707567,368171,561008,529901,448116,636248,409506,587742,286473,312671,299519,148457,190198,0,110947,97155,264225,188926,209997,171845,78025,243037,196187,286869,163242,209060,309063,145381,334994,400859,534461,558766,429383,451896,537764,416119,456934,433834,141564,182453,250653,210473,202032,172209,159693,154052,145891,226962,206087,323654,281131,290811,328195,293367,419674,362197,340078,409813,469848,458844,516763,418211,501217,420467,454138,557714,605525,640656,719588,757402,755642,681134
1056,525979,510336,532775,595644,551174,521773,362179,433013,391780,394265,381231,382950,675230,597545,635346,586468,676541,608296,745456,683948,612385,361888,554725,480952,352934,587299,331911,538793,280190,259243,291884,140822,182562,71256,0,97305,197315,77978,114815,215297,123927,286489,242088,332770,209143,252511,352515,191282,380895,444311,580363,602218,475284,497797,583665,462021,502835,479735,147700,157044,203991,256374,247933,218110,205594,199953,191793,272863,251988,369555,327032,336712,374096,339268,465575,408098,385979,455714,515749,504745,562664,464112,547118,466368,500039,603615,648976,686557,765489,803303,801543,727035
1057,438686,436779,459218,508352,463881,434481,288622,364789,304487,320708,293939,295657,587938,510253,548054,512911,589863,521003,658164,705917,634353,274596,467433,436326,369884,542673,315931,494167,192897,217743,204592,53530,95270,50868,111933,0,169297,96270,118331,147073,128893,218265,243532,325392,210587,184287,284291,151999,382340,370754,539985,528660,425105,499242,585109,463465,504279,481179,192432,233321,301521,261341,252900,219555,207038,204920,196759,277830,253432,373043,328476,338157,375540,340713,467019,409542,387423,457159,517194,506189,564108,465556,548562,467812,501483,605060,575419,647212,721559,741319,802988,728479
1058,395892,432181,454620,464379,402156,372755,284024,363034,261693,316111,270872,252863,526212,448528,486328,490667,528137,459278,596438,612873,541309,204676,405707,366458,281859,472805,191916,424299,162528,61928,112653,180492,216626,237791,187315,186924,0,168915,81351,300126,311241,269233,429403,437779,396458,337341,314075,324515,549816,366156,535387,524063,420507,524880,623093,489103,517503,556432,335014,344359,311846,443689,435248,405425,392908,387268,379107,460178,439303,556870,514347,516116,561411,518672,652890,595412,551296,621031,681066,670062,727981,577747,610520,619058,613674,676204,570821,642615,716961,679593,769798,763913
1059,504164,502256,524695,573829,529358,499958,354099,431547,369965,386186,359416,361135,653415,575730,613531,578388,655340,586481,723641,692724,621160,340073,532910,489728,361710,596075,340687,547569,258375,226368,270069,119007,160747,126358,75408,75490,164439,0,105138,222563,199334,293755,317496,400883,284550,259778,351049,227490,456303,436231,605462,594138,490582,573205,659072,537428,578243,555143,223107,232452,279399,331782,323341,293518,281001,275361,267200,348271,327396,444963,402440,412120,449503,414676,540983,483505,461387,531122,591157,580152,638072,539519,622526,541776,575446,679023,640896,712690,787036,806796,876951,802443
1060,485656,521945,544384,554143,491920,462519,373788,452798,351457,405875,360636,342627,615976,538292,576092,580431,617901,549042,686202,587586,516022,294440,495471,384590,256572,490937,235549,442431,252292,151692,202417,160832,202573,168184,105964,117316,89764,99307,0,264389,229890,335581,348051,438734,315106,301603,392874,269315,486859,455920,625151,613827,510271,603761,689628,567984,607267,585699,253663,263008,230495,362338,353896,324074,311557,305916,297756,378827,357952,475519,432995,442676,480059,445232,571539,514061,491943,561678,621713,610708,668628,570075,653082,572332,606002,709579,660585,732379,806725,769357,843911,832999
1061,407071,319035,341475,468259,432266,402866,170879,226930,272872,202965,262323,264042,556322,478638,446269,395168,485241,489388,626548,718542,689348,242981,435817,404711,338269,511058,284316,462552,161282,249997,214576,181554,138666,168785,239957,128024,247969,224294,246355,0,192127,95188,198072,198150,165127,37215,152646,65342,328789,253011,422241,410917,296722,359113,509948,323337,403508,427629,310349,351238,419438,379258,296837,174094,161578,322837,182307,351946,207972,327583,274925,276488,322524,279044,418026,360548,333873,403608,463643,452638,510558,412005,495012,414262,447932,551509,457676,529469,603816,641630,718789,650767
1062,539272,523629,546068,608937,564467,535066,375472,446306,405073,407559,394524,396243,688523,610838,648639,599761,689834,621589,758749,760216,688653,375181,568018,536911,429202,643258,408179,594752,293483,318329,305177,154115,195855,84549,92033,110598,269882,170012,191083,228590,0,299782,255381,346063,222436,265804,365808,204575,394188,457604,593656,615511,488577,511090,596958,475314,516128,493028,119492,160381,228581,188401,179960,231403,218887,131980,148791,204890,215231,301582,340325,350005,387389,352561,478868,421391,399272,469007,529042,518038,575957,477405,560411,479661,513332,616908,662269,699850,778782,816596,814836,740328
1063,330445,223847,246287,373071,343242,326240,75690,146525,196246,107777,185697,187416,479696,389613,351080,299980,390053,412762,549922,641916,612722,166355,359191,328085,261643,434432,207690,385925,84656,173371,137950,255694,212806,242925,314097,202164,248889,298434,320495,92442,284569,0,238051,189730,257569,94652,66026,157784,320370,157822,327053,315729,212174,308370,414759,272594,309169,348098,384489,425378,493578,453398,389279,266536,254020,396977,274749,444389,300414,405864,266506,268068,314105,270624,409606,352129,325453,395188,455223,444219,502138,369413,402186,405842,405340,467871,362488,434281,508628,546441,623600,555579
1064,534161,352290,374730,501514,471685,495812,204133,235127,399962,236220,389414,391132,629890,518056,479523,428423,518496,562955,700116,792109,816439,370071,509385,531801,465359,633323,411406,574745,288373,377088,341666,331791,341412,259121,285004,278261,447558,362982,384054,202746,192971,224901,0,90682,70575,205511,183134,161136,138808,276163,338275,396342,233196,255709,341577,219933,260747,237647,312463,353351,421552,355007,296074,110021,97504,324951,183151,342988,156805,203562,84944,94624,132008,97180,223487,166010,143891,213626,273661,262657,320576,222024,305030,224280,257951,361528,438593,444470,523402,561215,559455,484947
1065,491372,301960,324399,451184,421354,445482,176117,166525,357173,185890,346625,348343,579560,467726,429193,378093,468166,512625,649786,741779,773650,327282,459055,489012,422570,582993,368617,524415,245583,334299,298877,349967,345208,322948,348832,296437,409816,392707,414768,206542,256798,182112,99575,0,134403,209307,125680,179312,152178,235935,351646,393842,236317,269080,354948,233304,274118,251018,376291,417179,485379,418835,359902,173848,161332,388778,246979,406815,220633,267389,98315,99877,145914,102433,271131,213654,157262,226997,287032,276028,333947,235395,318401,237651,271322,374898,440601,457840,536772,574586,572826,498318
1066,570009,388138,410578,537362,507533,531660,239981,270976,435810,272068,425262,426980,665738,553904,515371,464271,554344,598803,735964,827957,843421,405919,545233,567649,501208,669171,447255,610593,324221,412936,377514,304733,326823,220918,246802,251204,420501,324780,345852,198198,154768,260749,35848,126531,0,235413,218982,134079,174656,312011,374123,432190,269044,291557,377425,255781,296595,273495,274261,315149,383349,316805,257872,71818,59302,286748,144949,304785,118603,165359,120792,130472,167856,133029,259335,201858,179739,249474,309509,298505,356424,257872,340878,260128,293799,397376,474441,480318,559250,597063,595303,520795
1067,453981,296142,318581,445366,415536,439664,147985,189716,319782,180072,309233,310952,573741,461908,423375,372274,462348,506807,643967,735961,736258,289890,453236,451621,385179,557967,331226,509461,208192,296907,261486,228463,185576,215694,286867,174934,294879,271203,293264,46910,239036,133958,203988,160936,171043,0,126986,112251,291575,230117,399348,388024,259508,321899,487054,286122,366294,390414,357259,398147,466348,412090,343746,180010,167494,369746,229217,398856,213888,333499,237711,239273,285310,241829,380811,323334,296658,366393,426428,415424,473343,374791,457797,377047,410718,514295,434783,506576,580923,618736,695895,627874
1068,365692,193241,215681,342465,312636,336763,64306,80498,231493,77171,220944,222663,470841,359008,320475,269374,359447,403907,541067,633060,647969,201602,350336,363332,296890,469678,242937,415697,119903,208618,173197,298392,255504,285623,356795,244862,284136,341132,363193,148874,329247,56432,172024,123704,206852,133307,0,214216,254343,127217,296448,285123,150290,242344,384154,206567,278563,317493,427187,468076,536276,491283,432351,246297,233780,439675,319427,479264,293081,339838,200479,202041,248078,204598,343580,286102,259427,329162,389197,378192,436112,317745,371581,339816,353672,437265,331882,403675,478022,515836,592995,524973
1069,471191,383155,405594,532379,496385,466985,234998,291050,336992,267085,326443,328162,620442,542757,510388,459287,549361,553507,690668,782661,751478,307100,499937,468830,402389,575177,348436,526671,225402,314117,278696,170654,192744,144986,218818,117125,286422,213394,235455,64119,126785,159308,133808,185352,100863,101334,216765,0,272616,317130,472083,475037,360842,389517,475385,353741,394555,371455,246277,287166,355366,315186,231495,109830,97314,258765,116965,286605,143708,263319,218752,228432,265816,230989,357295,299818,277699,347435,407469,396465,454384,355832,438838,358088,391759,495336,521795,578278,657210,695023,693263,618755
1071,429662,231949,246270,373055,343225,367353,233288,137032,413727,206558,415430,417148,501430,389597,351064,299963,384029,434496,571656,663650,697902,396087,380925,510606,491376,504864,437422,446286,314389,403104,367682,476918,449990,431595,457479,423388,478621,519658,541719,318561,365445,250917,208222,126951,243050,321326,194485,306263,0,137355,242125,269912,94389,120203,295420,84426,164598,191490,484938,525826,594026,527482,468549,282495,269979,497425,355626,515462,329279,376036,116465,191687,237723,162603,348980,303780,97734,167470,227504,216500,274419,175867,258873,178123,211794,315371,342443,396640,475309,513122,513298,438790
1072,292307,94594,108915,235700,205870,229998,202255,112628,276372,93659,391191,325307,364075,252242,213709,162608,246674,297141,434301,526295,560547,347928,243570,373251,439527,367509,389263,308931,290150,378865,343444,468638,425751,455870,527042,415109,454382,511378,533439,319121,499494,226679,342271,257934,377098,303554,170247,384462,209802,0,169231,157906,80493,211549,256937,175772,151347,190276,597434,638322,706523,661530,602597,416544,404027,609921,489674,649511,463328,510085,259236,331392,377428,302308,487903,442703,211282,281017,341052,330048,387967,211591,244364,252902,247518,310048,207695,279488,353835,391648,468807,400307
1073,376373,315373,263829,319766,289937,314064,383804,294177,360438,317201,487421,409373,441252,324181,293289,246675,297148,374318,511478,603471,644613,431994,327637,457317,523593,451575,473330,392997,471698,560414,524992,650187,607299,637418,682970,596657,635931,692927,701039,500669,590936,408227,433713,419634,468541,485103,351795,566011,319294,223541,0,108995,262042,207627,215420,205096,142929,181858,710429,751317,819517,752973,694040,507986,495470,722916,581117,740953,554771,601527,346519,417178,463214,388094,573689,528489,297068,366803,347804,415834,421940,203173,222460,244484,239100,288144,147282,201479,280148,317961,392423,318696
1074,267379,206379,154834,210771,180942,205070,274809,185182,251444,208206,378427,300378,339147,227314,188781,137680,217732,272213,409373,501366,535619,323000,218642,348323,414599,342581,364335,284003,362704,451419,415998,541193,498305,528424,599596,487663,526936,583932,592044,391675,572048,299233,414825,330488,449653,376108,242801,457017,282356,114547,174429,0,153047,251706,257856,248326,187008,225937,669988,710876,779077,734084,675152,489098,476581,682475,562228,722065,535882,582639,331790,403946,449982,374862,560457,515257,283836,353571,391883,402602,460521,247252,280025,288563,283179,345710,178753,250546,324893,362706,439865,371844
1075,366910,169198,183519,310303,280474,304601,171371,75115,350975,144641,353678,355397,438679,326845,288312,237212,321278,371744,508905,600898,635150,334335,318174,447854,429624,442112,375671,383534,252637,341352,305931,431125,388238,418356,489529,377596,416869,473865,495926,281608,433749,189165,276526,205674,311354,266041,132734,346949,138401,74603,191805,180481,0,140148,279511,104371,173921,212850,553242,594130,662330,595786,536853,350799,338283,565729,423930,583766,397584,444340,187835,259991,306028,230907,416502,371302,139881,209616,269651,258647,316566,215549,266938,220270,251476,332622,282298,346319,424988,462802,497390,422881
1076,374709,179518,191317,318102,288272,312400,234849,138593,358774,178583,417156,407709,446477,334644,296111,245010,328101,379543,516703,608697,642949,397814,325972,455653,493102,449911,439149,391333,316115,404830,369409,494604,451716,481835,534287,441074,480348,537344,559405,345086,442253,252644,285030,269530,319858,329520,196212,410428,169190,84924,155496,184478,78804,0,212876,47467,77969,110607,561746,602634,670834,604290,545357,359303,346787,574233,432434,592270,406087,452844,197836,268495,314531,239411,425006,379806,148385,218120,239615,267151,313750,94984,176329,136295,130911,234487,255814,310011,388679,426493,430754,356246
1077,477329,398495,364785,420722,390892,415020,453827,357571,461394,397560,588377,510329,468974,351903,321011,347630,324870,402040,518569,556548,653250,532950,428592,558273,624549,552531,574286,493953,535092,623807,588386,682772,670693,598956,624840,629242,699325,702818,723890,564063,532807,471621,375584,403689,410411,548497,415189,512117,284527,303901,198846,209950,297782,218977,0,216446,139460,177273,652299,693187,761388,694843,635910,449857,437340,664786,522987,682824,496641,543397,288390,359048,405085,329964,515559,470359,238939,308674,289674,357704,355100,145043,65052,186354,180830,111796,175434,102893,181825,219638,217879,143370
1078,410486,215295,227094,353878,324049,348177,249965,167048,394551,214360,427861,429580,482254,370421,331888,280787,363878,415320,552480,644473,678726,408519,361749,491430,503807,485688,449854,427110,326820,415535,380114,505309,462421,460936,486819,451779,491053,548049,570110,355791,394786,263349,237563,222063,272391,340225,206917,374097,121723,120701,159590,217657,114581,35777,216969,0,82062,120991,514279,555167,623367,556822,497890,311836,299320,526766,384966,544803,358620,405377,150369,221027,267064,191944,377539,332339,100918,170653,230688,219684,277603,113068,180422,154379,148995,246107,259907,314104,392773,430586,434847,360339
1079,428314,259035,259930,371707,341877,366005,314366,218111,412379,258100,496673,461314,497155,380084,349192,298615,353051,430221,567381,659375,696554,477331,379577,509258,572619,503516,518666,444938,395632,484347,448926,574121,531233,528417,554300,520591,559865,616861,638922,424603,462267,332161,305044,291524,339872,409037,275729,441578,191184,164441,102868,160935,158321,79517,134907,76986,0,49538,581760,622648,690848,624303,565371,379317,366800,594247,452447,612284,426101,472858,217850,288508,334545,259425,445020,399820,168399,238134,219135,287165,291726,74504,98360,115815,110290,164045,203186,237800,316732,354545,352786,278277
1080,485984,316705,317600,429377,399548,423675,372037,275781,470049,315770,554344,518984,552869,435798,404906,356286,408764,485935,623095,687269,754224,535001,437248,566928,630289,561186,576336,502608,453302,542018,506596,604893,588903,521078,546962,551364,617535,624940,646012,482273,454929,389831,297705,325811,332533,466707,333399,434239,206649,222111,160538,218606,215992,137187,130721,134656,76804,0,574421,615309,683510,616965,558032,371978,359462,586908,445109,604946,418763,465519,210512,281170,327207,252086,437681,392481,161060,230796,211796,279826,284387,67165,94174,108476,102951,150672,258899,233614,312546,350359,348600,274091
1081,555518,539875,562315,625184,580713,551313,391718,462553,421319,423805,410770,412489,704769,627085,664885,616008,706081,637835,774995,776463,704899,391428,584264,553158,445449,659505,424426,610999,309729,334575,321423,170361,212102,100795,108280,126845,286129,186258,207330,244836,122839,316028,268820,359502,235874,282051,382055,218014,407627,473851,607094,631757,502016,524529,610396,488752,529567,506467,0,121903,190103,176666,168225,244842,232325,120245,137056,193155,203496,289847,353764,363444,400828,366000,467289,409812,412711,482446,542481,531476,589396,490844,573850,493100,526770,630347,678516,713289,792221,830035,828275,753767
1082,641022,625379,647819,710688,666217,636817,477223,548057,506823,509309,496274,497993,790273,712589,750389,701512,791585,723339,860499,861967,790403,476932,669768,638662,530953,745009,509930,696503,395233,420079,406927,255865,297606,186299,193784,212349,371633,271762,292834,330340,208343,401532,354324,445006,321379,367555,467559,303518,493131,559355,692598,717261,587520,610033,695901,574256,615071,591971,85504,0,168012,183653,175212,330346,317829,127232,222560,202377,289000,296834,439268,448948,486332,451504,474276,416799,498215,567950,627985,591602,665472,576348,659354,578604,612275,715851,764020,798793,877725,915582,913816,839271
1083,678916,694939,717379,747402,685179,655779,546783,617617,544717,578869,556883,535887,809235,731551,769351,771072,811160,742301,879461,772645,701081,487700,688730,569649,441631,675996,420608,627490,448539,347940,398664,325425,367166,255859,184604,281909,286012,234719,203512,399900,278024,471092,424005,514687,391060,437115,537119,373199,562812,628915,762280,786821,657201,679714,765582,643938,684752,661652,183305,132071,0,286323,270747,400027,387511,222767,292242,305684,358681,399505,508949,518629,556013,521185,576947,519469,567896,637631,697666,686662,744581,646029,729035,648285,681956,785532,833580,868474,947890,962050,983864,908760
1085,690596,674953,697392,760262,715791,686390,526796,567985,556397,558883,545848,547567,839847,762163,799963,751085,841159,772913,910098,911642,839977,526505,719342,688236,580527,794582,559504,746076,444807,469653,456501,305439,347179,235873,243357,261923,421207,321336,342408,379914,249650,451106,332857,423540,298357,417129,515992,329133,471665,608928,671132,729200,566054,588567,674434,552790,593604,570505,135078,181213,238883,0,78817,280583,268066,49277,214676,186218,187657,148016,417801,405486,359698,430038,325457,267980,476749,470961,558757,442783,516653,554881,637888,557138,590808,694385,771450,777327,856259,894072,892313,817805
1086,704499,616463,638903,765687,729694,700293,468306,504785,570300,500393,559751,561470,853750,776066,743696,692596,782669,786816,924070,937721,865812,540408,733245,702139,606362,808485,581744,759979,458710,495489,482337,331275,373015,243310,269193,287758,447042,347172,368243,297428,177160,392616,269657,360340,235156,334642,450074,233308,408465,545820,607932,666000,502854,525367,611234,489590,530404,507304,180482,226616,284287,91070,0,217383,204866,49826,118852,157391,124457,129024,354601,351807,332511,366838,306466,248988,413549,451969,539765,423792,497662,491681,574688,493937,527608,631185,708250,714127,793059,830872,829113,754605
1087,533451,445415,467855,594639,558646,529246,297259,348194,399252,329345,388703,390422,682702,605018,572649,521548,611621,615768,752928,843166,771603,369361,562197,531091,464649,637438,410696,588931,287662,376377,340956,232915,255005,149100,174983,179385,348682,252962,274033,126380,82950,221568,113067,203749,80121,163594,279026,62261,251874,379391,451341,509409,346263,368776,454643,332999,373814,350714,202443,243331,311531,271351,187660,0,76572,214930,73130,242770,122967,242578,198011,207691,245075,210247,336554,279076,256958,326693,386728,375723,433643,335091,418097,337347,371017,474594,551659,557536,636468,674282,672522,598014
1088,545968,457932,480371,607156,571163,541762,309775,360711,411769,341862,401220,402939,695219,617534,585165,534064,624138,628285,765445,855683,784119,381877,574714,543607,477166,649954,423213,601448,300179,388894,353473,245432,267521,161616,187500,191902,361199,265478,286550,138897,95467,234085,125583,216266,92638,176111,291542,74777,264391,391907,463858,521926,358780,381293,467160,345516,386330,363230,214959,255847,324048,283868,200177,12517,0,227446,85647,255286,135483,255094,210527,220208,257591,222764,349070,291593,269474,339210,399244,388240,446159,347607,430613,349863,383534,487111,564176,570053,648985,686798,685039,610530
1089,686173,664443,686883,755839,711368,681968,516286,552765,551974,548373,541426,543144,835425,757740,791676,740576,830649,768490,905675,907118,835554,522083,714920,683813,576104,790160,555081,741654,440385,465231,452079,301017,342757,231451,238935,257500,416784,316913,337985,345408,200372,440596,317637,408320,283136,382622,498054,281288,456445,593800,655912,713980,550834,573347,659214,537570,578384,555284,130655,176790,234460,63557,47980,265363,252846,0,166832,136940,172437,176738,402581,399787,380491,414818,354180,296702,461529,499683,587479,471506,545376,539661,622668,541917,575588,679165,756230,762107,841039,878852,877093,802584
1090,585647,497611,520051,646835,610842,581442,349455,400390,451448,381541,440899,442618,734898,657214,624845,573744,663817,667964,805124,851602,780039,421557,614393,583287,516845,689634,462892,641128,339858,409715,393152,245501,287241,157536,183419,201985,361268,261398,282470,178576,91386,273764,165263,255945,132317,215791,331222,114457,304070,431587,503537,561605,398459,420972,506840,385195,426010,402910,210879,251767,319967,205600,114530,141285,128768,164356,0,170126,109411,222051,250207,259887,297271,262443,388750,331272,309154,378889,438924,427919,485839,387287,470293,389543,423213,526790,603855,609732,688664,726478,724718,650210
1091,671263,583228,605667,732451,696458,667058,435071,486006,537064,467157,526515,528234,820514,742830,710461,659360,749433,753580,890740,904141,832577,507173,700010,668903,573127,775250,548508,726744,425474,462253,449101,298039,339779,210074,235958,254523,413807,313936,335008,264192,143924,359380,250879,341561,217934,301407,416838,200073,389686,517203,589154,647221,484075,506588,592456,470811,511626,488526,210280,256415,314085,178009,86940,217519,205002,136766,85616,0,124594,209904,335823,345503,332648,348059,387345,329868,394770,464505,524540,468386,542257,472903,555909,475159,508830,612406,689472,695348,774280,812094,810334,735826
1092,626376,497490,519930,646714,616884,622171,349333,380327,492177,381420,481628,483347,775090,663256,624723,573623,663696,708155,845316,931916,860008,462286,654585,624016,557574,730363,503621,681857,380587,469302,433881,325470,347930,237505,263389,272311,441238,341367,362439,219305,171356,314493,145200,235882,112076,256520,328334,155186,284008,421363,483475,541542,378396,400909,486777,365133,405947,382847,279805,320693,388894,198202,139269,92925,80409,189096,113047,186183,0,130123,230144,233457,225536,242380,307565,250087,289091,358826,418861,361275,435145,367224,450230,369480,403151,506728,583793,589670,668601,706415,704655,630147
1093,725529,543658,566097,692881,663052,687180,395501,426495,591330,427587,580781,582500,821257,709424,670891,619790,709863,754323,891483,983573,974168,561439,700752,723169,656727,824691,602774,766113,479740,568455,533034,440126,463997,352161,378044,388378,555893,456022,477094,335372,286011,416269,191368,282050,169547,372587,374502,271253,330175,467530,529642,587710,424564,447077,532944,411300,452115,429015,292791,338925,396596,157713,141900,208992,196476,191727,227702,299291,132137,0,276312,257471,211683,288548,177442,119964,335259,322945,410741,294768,368638,413391,496398,415648,449318,552895,629960,635837,714769,752583,750823,676315
1094,526704,328991,343312,470096,440267,464395,264933,209192,453377,238203,442829,444547,598472,486639,448106,397005,481071,531538,668698,760692,794944,423486,477967,585216,518775,601906,464821,543328,341788,430503,395081,398945,421035,315130,341013,345415,506020,418992,440063,292410,248980,278316,91757,125927,126585,297268,221884,228290,97042,234397,296509,354576,191431,213944,299811,178167,218981,195881,368472,409361,477561,411016,352084,166030,153513,380960,239160,398997,212814,259571,0,75221,121258,46138,263313,205835,102125,164497,231895,213267,271447,180258,263264,182514,216185,319762,396827,402704,481636,519449,517690,443181
1095,571306,380503,394824,521608,491779,515906,256050,244873,437107,265824,426558,428277,649984,538151,499618,448517,532583,583050,720210,812203,846456,407216,529479,568946,502504,653418,448551,594840,325517,414232,378811,396968,419057,313153,339036,343438,489750,417014,438086,287215,247003,262046,89780,92310,124607,289980,205614,226313,148554,285909,348021,406088,242942,265455,351323,229679,270493,247393,366495,407384,475584,409039,350106,164053,151536,378983,237183,397020,210837,257594,94690,0,46037,44160,201177,153716,153637,173645,254898,182794,256664,231770,314776,234026,267697,371274,448339,454216,533147,570961,569201,494693
1096,617094,426291,440612,567396,537567,561694,301838,290661,482895,311612,472346,474065,695772,583939,545406,494305,578371,628838,765998,857991,892244,453004,575267,614734,548292,699206,494339,640628,371305,460020,424599,442756,464845,358941,384824,389226,535538,462802,483874,333003,292791,307834,135568,138098,170395,335768,251402,272101,194342,331697,393809,451876,288730,311243,397111,275467,316281,293181,412283,453172,521372,374826,344780,209841,197324,394607,282971,391694,222993,217113,140478,45788,0,89948,155141,110933,199425,164935,252731,136757,210628,277558,360564,279814,313485,417062,494127,500004,578935,616749,614989,540481
1097,579781,397909,420349,547133,517304,541431,249753,280747,445582,281839,435033,436752,675509,563676,525143,474042,564115,608575,745735,837728,862058,415690,555004,577420,510979,678943,457026,620365,333992,422707,387286,352807,374897,268992,294876,299278,468575,372854,393926,246272,202842,270521,45619,128359,80447,251131,228754,182153,184427,321782,383894,441962,278816,301329,387196,265552,306366,283266,322335,363223,431423,364879,305946,119892,107376,334822,193023,352859,166676,213433,130563,60845,106881,0,217175,159697,189511,234490,315743,243639,317509,267643,350650,269899,303570,407147,484212,490089,569021,606834,605075,530566
1098,729280,531568,545889,672673,642844,666971,449558,436650,630615,459332,620066,621785,801049,689216,650683,599582,683648,734114,871275,963364,997444,600724,680544,762454,696012,804482,642059,745904,519025,607740,572319,566602,588692,482787,508670,513072,682369,586649,607720,460067,416637,455554,259414,285818,294242,464925,399122,395948,299618,436973,499085,557153,394007,416520,502388,380743,421558,398458,492266,538401,596072,357189,341376,333687,321170,391203,404756,477892,309191,199476,288198,193508,147720,237668,0,67069,304702,250719,338515,222541,296412,382835,465841,380059,418761,510192,599403,605280,684212,722026,720266,645758
1100,681542,483830,498151,624935,595106,619233,393557,382380,574614,403330,564065,565784,753311,641478,602945,551844,635910,686377,823537,915644,949191,544722,632806,706453,640011,756745,586058,698166,463024,551739,516318,499533,521623,415718,441601,446003,615301,519580,540652,392998,349568,399553,192345,229817,227173,397856,343121,328879,251880,389236,451348,509415,346269,368782,454650,333006,373820,350720,425198,471332,529003,290120,274307,266618,254101,324134,337688,410823,242122,132407,232196,137507,91719,181667,74590,0,256964,202981,290777,174803,248674,335097,418103,332321,371024,462454,551666,557542,636474,674288,672528,598020
1101,475251,277538,291859,418643,388814,412942,278877,182621,459316,252147,461018,462737,547019,435186,396653,345552,429618,480085,617245,709239,743491,441676,426514,556195,536964,550453,483011,491875,359977,448692,413271,443833,465923,360018,385901,390303,524210,463880,484952,337298,293868,296506,136645,164750,171473,342156,240074,273179,45589,182944,226859,284926,139978,144293,230161,108516,149331,126231,413361,454249,522449,455904,396972,210918,198401,425848,284048,443885,257702,304459,49451,120109,166146,91026,276621,231421,0,102210,162245,151241,209160,110608,193614,112864,146535,250111,327177,333053,411985,449799,448039,373531
1102,555547,357834,372155,498939,469110,493237,359172,262917,539611,332443,541314,543033,627315,515482,476949,425848,509914,560381,697541,789534,823787,521972,506810,636491,617260,630749,563307,572171,440273,528988,493567,524129,546219,440314,466197,470599,604506,544176,565247,417594,374164,376802,216941,245046,251769,422452,320370,353474,125885,263240,307154,365222,220273,224589,310456,188812,229627,206527,493656,534545,602745,497423,477268,291214,278697,506144,364344,524181,337998,339711,129747,157625,143156,171322,252503,207304,80296,0,109702,49030,106950,190904,273910,149531,208015,303930,407472,413349,492281,530095,528335,453827
1103,631312,433599,447920,574705,544875,569003,434938,338682,615377,408208,617080,618799,703081,591247,552714,501614,585680,636146,773307,865300,899552,597737,582576,712256,693026,706514,639073,647936,516039,604754,569333,599894,621984,516079,541963,546365,680271,619941,641013,493359,449929,452567,292706,320812,327534,498218,396136,429240,201650,339005,338457,396525,296039,289854,341759,264578,260929,237829,569422,610310,678511,577024,553033,366979,354463,581909,440110,599947,413764,419312,205512,237226,222757,247087,332104,286905,156061,79601,0,128631,104010,195936,305212,115480,173029,268944,438775,444652,523584,561397,559638,485129
1104,603145,405432,419753,546538,516708,540836,406771,310515,587210,380041,588913,590631,674913,563080,524547,473446,557513,607979,745139,837133,871385,569570,554408,684089,664859,678347,610906,619769,487872,576587,541165,571727,593817,487912,513796,518198,652104,591774,612846,465192,421762,424400,264539,287547,299367,470051,367968,401073,173483,310838,354753,412820,267872,272187,358055,236411,277225,254125,541255,582143,650343,457457,441644,338812,326296,491471,411943,530929,362228,299744,177345,195237,149449,218920,226552,167337,127894,47598,135394,0,93291,238502,321508,197129,252407,345168,455071,460948,539880,577693,575933,501425
1105,649870,452158,466479,593263,563434,587561,453496,357240,633935,426766,635638,637357,721639,609805,571272,520172,604238,654704,791865,883858,918010,616295,601134,730814,711584,725072,657631,666494,534597,623312,587891,618453,640542,534637,560521,564923,698829,638499,659571,511918,468488,471125,311265,339370,346092,516776,414694,447798,220208,357563,396956,455024,314597,318913,400259,283136,319429,296329,587980,628868,697069,509921,494108,385538,373021,543935,458668,583393,414692,352208,224071,247701,201913,265645,279016,219801,174619,94324,117335,52464,0,276636,363712,196795,232738,325500,497274,503151,582083,619897,618137,543629
1106,467968,278664,290463,411360,381531,405659,333995,237740,452033,277729,516302,500967,536809,419738,388846,338269,392705,469875,607035,699028,736208,496960,419231,548912,592248,543170,538295,484592,415261,503976,468555,537728,550862,453913,479797,484199,579494,557775,578847,431193,387763,351790,230540,258645,265368,428666,295358,367074,139484,184070,142521,200589,177951,99146,145824,99318,64994,41894,507256,548144,616344,549800,490867,304813,292297,519743,377944,537780,351597,398354,143346,214005,260041,184921,370516,325316,93895,163630,144631,212661,218767,0,109277,41311,62197,165774,242839,248716,327648,365462,363702,289194
1107,513624,358656,369911,457017,427187,451315,413987,317731,497689,357721,596294,546624,578503,461431,430540,383925,434398,511568,648729,712903,781864,569245,464887,594568,660844,588826,610580,530248,495253,583968,548547,617720,630854,533905,559788,564190,659485,637767,658838,511185,467755,431782,310532,338637,345360,508657,375350,447065,219476,264062,212849,246245,257942,179138,156355,179309,135321,112221,587247,628136,696336,629791,570859,384805,372288,599735,457935,617772,431589,478346,223338,293996,340033,264913,450507,405308,173887,243622,224623,292652,290048,79992,0,121303,115778,125091,284533,259248,338180,375993,374233,299725
1109,527835,330122,344443,471228,441398,465526,331461,235205,511900,304731,513603,515321,599603,487770,449237,398136,482202,532669,669829,761823,796075,494260,479098,608779,589548,603037,535595,544459,412562,501277,465855,496417,518507,412602,438486,442888,576794,516464,537536,389882,346452,349090,189229,217334,224057,394741,292658,325763,98173,235528,241406,299474,192562,186376,244708,161101,163879,140779,465945,506833,575033,508489,449556,263502,250986,478432,336633,496469,310286,357043,102035,172694,218730,143610,329205,284005,52584,122319,103320,171350,177456,101030,208162,0,92098,188013,341724,347601,426533,464347,462587,388079
1110,516126,326823,338622,459519,429690,453817,382154,285898,500191,325888,564461,549126,584968,467896,437005,386428,440863,518033,655194,747187,784367,545118,467390,597070,640407,591329,586454,532750,463420,552135,516714,570729,592819,486914,512797,517199,627652,590776,611847,464194,420764,399949,263541,291646,298369,469052,343517,400074,172485,232229,190680,248748,226109,147305,193982,147476,113152,90052,540256,581145,649345,582800,523868,337814,325297,552744,410944,570781,384598,431355,176347,247005,293042,217922,403516,358317,126896,196631,177632,245661,204527,48159,157436,74312,0,137344,290998,296875,375807,413620,411861,337352
1111,475371,396537,362827,418764,388934,413062,451869,355613,459436,395602,586419,508371,540250,423178,392287,345672,396145,473315,610476,674650,743611,530992,426634,556315,622591,550573,572328,491995,533134,621849,586428,679900,668735,596085,621968,626370,697367,699946,721018,562105,529935,469663,372712,400817,407539,546539,413231,509245,281656,301943,196888,207992,295824,217019,118102,214488,137502,175315,649427,690316,758516,691971,633038,446985,434468,661915,520115,679952,493769,540526,285518,356176,402213,327092,512687,458266,236067,282438,250484,329757,277293,143085,63094,183483,131196,0,246280,220995,299927,337740,335981,261472
1112,405095,347932,296388,352325,300591,342786,416363,326736,389159,349760,516143,438094,358887,241816,210924,249688,214783,291953,429113,521107,617808,460716,356358,486039,552315,480297,502051,407298,504257,592972,557551,682746,639858,669977,741150,629216,668490,725486,729760,533228,658321,440786,501098,472041,535926,517662,384354,598570,386679,256100,138805,141553,294601,275012,184854,272481,210314,249243,777814,818702,886902,820358,761425,575371,562855,790301,648502,808338,622155,668912,413904,484563,530599,455479,641074,595874,364453,434188,415189,483219,489325,270558,249906,311869,306485,296650,0,83293,161961,199775,274237,214643
1113,467961,406961,355416,411353,374764,405652,475391,385764,452026,408788,579009,500960,433061,315989,285098,323861,288956,366126,481772,519751,616453,523582,419224,548905,615181,543163,564917,481472,563286,652001,616580,741775,698887,713508,739392,688245,727518,784514,792626,592257,647359,499815,490136,518241,524963,576690,443383,626669,399079,315129,197833,200582,353629,333529,114552,330998,254012,291825,766851,807739,875940,809395,750462,564409,551892,779338,637539,797376,611193,657949,402942,473600,519637,444516,630111,584911,353490,423226,404226,472256,469652,259595,179604,300906,295382,226348,85673,0,111719,149532,190944,131351
1114,485893,483156,431611,437542,381390,423584,551586,461959,469958,484983,596941,518893,378886,322615,291723,357843,295582,353335,370053,408033,504734,541514,432421,558544,633113,556359,582850,468680,588054,676769,641348,785216,742328,772447,822237,731686,752287,827956,810559,668452,730203,576010,572980,601085,607808,652885,519578,709514,481924,391324,274028,276777,429824,410236,197397,407704,336857,374669,849696,890584,958067,892240,833307,647253,634737,862183,720384,880220,694037,740794,485786,556445,602481,527361,712956,667756,436335,506070,487071,555101,552497,342440,262448,383751,378226,309192,168640,124181,0,60045,114973,108543
1115,439062,473103,415857,390711,334559,376753,563263,498691,423127,511581,550110,472062,351153,275784,244892,311012,248751,305432,342320,380300,477001,494683,384519,510641,586282,508457,536019,420778,541223,629938,594517,738385,695497,725616,796788,684855,705456,781125,763728,655899,766935,563457,609712,637817,644539,658109,556309,721241,518655,428055,310760,313508,466556,446967,234128,444436,373588,411401,867180,908069,969377,929731,870038,683985,671468,879668,757115,916952,730769,777526,522518,593176,639213,564092,749687,704487,473067,542802,523803,591832,589228,379171,299180,420482,414958,345924,205371,160913,58963,0,139297,145274
1116,542792,573103,521559,513295,411393,480483,641534,551907,526857,574931,653840,575792,309523,352618,367477,433597,371336,338825,300690,338670,435371,598413,417911,544034,659587,541850,639749,454170,644953,733668,698247,842114,799227,818491,844374,788585,809185,884854,830974,758399,752341,665957,595118,623223,629945,742833,609525,731651,504061,481271,355621,366725,517316,438511,219534,435980,358994,396807,871833,912722,980186,914590,855444,669391,656874,884321,742521,902358,716175,762932,507924,578582,624619,549498,735093,689893,458473,528208,509209,577238,574634,364578,284586,405889,400364,331330,283162,201748,114522,146562,0,81698
1117,573094,534909,483365,524742,468590,510785,603340,513713,557159,536737,684142,606094,384031,409815,378924,445044,382782,413333,375199,413178,509879,628715,492419,618542,720314,616358,670051,528678,675255,763970,728549,864112,826835,780297,806180,810582,839487,884158,897760,720205,714147,627763,556924,585029,591751,704639,571331,693457,465867,443077,317427,328530,479122,400317,181340,397786,320800,358613,833639,874527,942265,876183,817250,631197,618680,846126,704327,864164,677981,724738,469730,540388,586425,511304,696899,651699,420279,490014,471014,539044,536440,326383,246392,367694,362170,293136,227344,141672,111137,148690,74508,0
